<svg width="48" height="48" viewBox="0 0 48 48" fill="none" xmlns="http://www.w3.org/2000/svg">
<g clip-path="url(#clip0_1039_9858)">
<path fill-rule="evenodd" clip-rule="evenodd" d="M35.4243 41.5072C35.4243 41.5072 35.3321 41.3966 35.1741 41.2067C34.7397 40.6843 33.8098 39.5598 32.9457 38.4742C32.8676 38.3761 32.7898 38.2779 32.7121 38.1795C38.0959 36.6595 40.1503 33.2911 40.1503 33.2911C38.6761 34.2617 37.2647 34.9807 35.9713 35.5027C35.79 35.5759 35.6076 35.6465 35.4243 35.7145C33.3699 36.5775 31.3971 37.1523 29.4657 37.4811C25.5203 38.2205 21.904 38.0153 18.8219 37.4402C16.4792 36.9881 14.4655 36.3309 12.7808 35.6738C11.8355 35.304 10.8081 34.8522 9.78049 34.2771C9.72273 34.2384 9.66487 34.2089 9.60701 34.1799L9.59555 34.1742L9.59539 34.1741L9.59526 34.174C9.53381 34.1433 9.4723 34.1125 9.41079 34.0715C9.32876 34.0305 9.28747 33.9895 9.24647 33.9485C8.69168 33.6404 8.32182 33.4016 8.17156 33.3015C8.12148 33.2681 8.09579 33.2501 8.09579 33.2501C8.09579 33.2501 8.21908 33.4555 8.48554 33.788C9.285 34.7855 11.3732 36.9267 15.2875 38.0973C14.0548 39.6586 12.5342 41.5069 12.5342 41.5069C3.45174 41.2192 0 35.263 0 35.263C0 22.0355 5.91775 11.3136 5.91775 11.3136C10.3561 7.98618 14.6325 7.22368 16.4934 7.05038C17.1137 6.99261 17.4655 7.00035 17.4655 7.00035L17.8766 7.49343C10.4794 9.62902 7.06843 12.8747 7.06843 12.8747C7.06843 12.8747 7.86298 12.4415 9.21506 11.812C9.30518 11.77 9.39781 11.7271 9.49282 11.6835C12.7908 10.2353 15.5803 9.573 17.3758 9.28034C17.9743 9.18278 18.4623 9.1263 18.8219 9.09549C18.8513 9.09055 18.8802 9.08561 18.9086 9.08074L18.9105 9.08045H18.9106C19.1192 9.0448 19.3041 9.0132 19.5205 9.0132C22.2745 8.65459 25.0615 8.62706 27.822 8.9312C31.7257 9.38304 35.9176 10.5333 40.1915 12.8747C40.1915 12.8747 37.3382 10.1669 31.2249 8.06834C30.8052 7.92431 30.3831 7.78741 29.9587 7.65771L30.534 7.00064C30.534 7.00064 30.556 7.00015 30.5987 7.00031C31.1962 7.00281 35.8488 7.13487 40.9768 10.5343C41.3527 10.7834 41.7212 11.0434 42.082 11.314C42.082 11.314 47.2831 20.7372 47.9335 32.8142C47.9766 33.6194 48 34.4363 48 35.263C48 35.263 44.5065 41.2193 35.4243 41.507V41.5072ZM16.3149 22.323C14.1189 22.323 12.3565 24.1282 12.1448 26.4185C12.1305 26.5728 12.1234 26.7277 12.1234 26.8826C12.1234 29.3886 14.0135 31.4425 16.3149 31.4425C18.6575 31.4425 20.5066 29.3886 20.5066 26.8826C20.5479 24.3769 18.6575 22.323 16.3152 22.323H16.3149ZM31.315 22.323C29.1188 22.323 27.3561 24.1282 27.1444 26.4185C27.1301 26.5728 27.123 26.7277 27.123 26.8826C27.123 29.3886 29.0136 31.4425 31.315 31.4425C33.6573 31.4425 35.5063 29.3886 35.5063 26.8826C35.5063 24.3769 33.6573 22.323 31.315 22.323Z" fill="#7289DA"/>
</g>
<defs>
<clipPath id="clip0_1039_9858">
<rect width="48" height="48" fill="white"/>
</clipPath>
</defs>
</svg>
