<svg width="48" height="48" viewBox="0 0 48 48" fill="none" xmlns="http://www.w3.org/2000/svg">
<g clip-path="url(#clip0_1039_9872)">
<path fill-rule="evenodd" clip-rule="evenodd" d="M18.1696 13.1363L18.0977 8.23233L21.0157 6.52331L25.3484 3.60555L27.1293 3.53308L28.9825 5.52499L29.9809 12.1434L28.6274 14.5622L23.0073 14.4177L18.1696 13.1363Z" fill="white"/>
<path fill-rule="evenodd" clip-rule="evenodd" d="M12.4057 27.1555L13.898 22.9558L16.8161 19.4718L18.3084 16.4818L18.9519 15.4885L29.6201 13.8519L31.7562 17.1973L37.7315 31.494L35.6671 34.0511L30.2584 43.0943L28.9827 43.3769L19.0908 43.6598L12.1895 35.9763L11.052 29.5743L12.4057 27.1555Z" fill="white"/>
<path fill-rule="evenodd" clip-rule="evenodd" d="M26.0644 16.2709C26.0644 16.2709 25.7093 16.1987 26.7024 15.9823C27.701 15.7717 27.7062 15.5607 27.9836 15.2721C28.2667 14.9892 28.4112 14.3455 28.4112 13.6356C28.4112 12.9256 28.7663 10.8617 28.6938 10.296C28.6276 9.72446 27.4124 7.5941 26.9186 7.30573C26.4195 7.02285 20.8716 6.52332 20.8716 6.52332L19.1628 7.87723L17.8814 9.08099L18.1698 12.9256C18.1698 12.9256 17.8092 14.1348 17.8814 14.6287C17.9536 15.1279 18.669 15.6994 18.9519 15.9823C19.2348 16.2709 20.3001 17.4137 20.655 17.7631C21.0155 18.1182 21.0878 18.4733 21.9364 18.1901C22.7908 17.9072 23.2901 17.9072 23.9338 17.408C24.5718 16.9087 26.0644 16.2709 26.0644 16.2709Z" fill="#F6D330"/>
<path fill-rule="evenodd" clip-rule="evenodd" d="M22.7911 10.224C23.0075 9.65254 23.2904 8.58748 23.7842 8.23238C24.2832 7.87728 25.3543 7.58344 25.9925 7.66088C26.636 7.7331 27.8397 8.37109 28.1281 8.87012C28.4112 9.36941 28.4112 11.3611 28.4112 11.3611L28.2668 12.9976L27.2737 12.9257L25.1381 12.071H24.783C24.783 12.071 24.4279 12.2097 23.3571 11.6439C22.2918 11.0727 22.5747 10.7953 22.7911 10.224ZM20.5166 11.7884C20.5499 11.755 20.6164 11.7107 20.7053 11.6606C21.1379 11.4221 22.0809 11.0727 22.0809 11.0727C22.0809 11.0727 23.0018 8.73167 22.2196 7.80507C21.4429 6.87871 19.7344 7.0229 19.7344 7.0229C19.7344 7.0229 17.8872 8.0882 17.9537 8.51527C18.0259 8.94259 18.0978 10.4347 18.1701 10.6456C18.2368 10.862 18.5252 13.1366 18.5252 13.1366L19.1631 12.8537L20.0897 12.1435C20.0895 12.1435 20.3056 12.0048 20.5166 11.7884Z" fill="white"/>
<path fill-rule="evenodd" clip-rule="evenodd" d="M34.1029 33.2744L35.1346 33.3521C35.2845 33.3634 35.4342 33.3686 35.5841 33.3743C36.3496 33.4019 37.0212 33.5185 37.7368 33.6074C38.2087 33.6632 38.9907 33.9627 39.0462 34.5562C39.1239 35.4329 38.8686 36.3979 39.6117 36.7587C40.372 37.2747 42.0693 38.4675 42.0693 38.4675L42.5688 39.3881L41.0767 40.742L33.748 45.1524L30.4082 44.0152V41.3133L30.5469 37.6853L30.1918 34.412L30.7578 33.1305L32.1835 32.7032L34.1029 33.2744ZM12.9106 31.6767C12.8384 31.61 11.5402 31.9932 11.4571 32.0097C10.8524 32.0983 10.087 32.5144 10.087 33.1748C10.087 33.5133 10.0593 33.8629 9.90393 34.1679C9.78191 34.4062 9.5045 34.7668 9.50998 34.8448C9.4156 35.1055 9.24378 35.4715 9.00522 35.6269C8.72781 35.6548 7.49616 35.7659 7.49616 35.7659H6.42538L5.78739 36.5423L6.28667 38.6119L6.14224 40.243L5.64844 42.0957L6.8522 42.7337L15.9616 45.1524L18.0255 44.5144L19.0905 41.8793L18.8741 40.8862L17.8813 38.8946C17.8813 38.8943 13.5541 32.6088 12.9106 31.6767Z" fill="#F6D330"/>
<path fill-rule="evenodd" clip-rule="evenodd" d="M17.5485 9.34718C17.3988 4.38223 19.3349 2.19061 23.3568 2.11865C27.3735 2.04095 29.8921 4.16011 30.4081 6.93966C30.9183 9.71349 30.6245 13.3693 31.6507 15.2669C32.6717 17.1696 33.3263 18.6286 35.0849 20.82C36.8378 23.0114 37.9307 25.2416 38.4414 27.9487C38.9569 30.6506 39.2458 31.9265 37.9307 33.3188C36.6161 34.7056 34.2806 36.9692 32.5272 34.4117C31.6454 33.1303 31.5511 31.5381 33.038 31.1999C33.9865 30.9778 34.6688 31.05 35.3735 31.416C36.0837 31.7823 36.2501 31.61 35.4012 30.9778C34.5465 30.3453 34.3749 30.9277 34.6688 29.907C34.9631 28.886 35.3459 27.0497 34.5468 25.0304C34.1752 24.0986 32.9159 21.5466 31.7341 20.9196C31.6285 20.8586 31.3182 20.7311 31.5289 20.9918C31.8452 21.3858 33.5482 23.8932 34.0308 25.3855C34.5468 26.989 34.6187 28.5202 34.3528 29.4909C34.0868 30.4673 33.6204 30.8555 33.0601 30.8555C32.4998 30.8555 31.9896 31.1217 31.9896 29.8348C31.9896 28.5421 32.1228 26.5948 31.4293 24.947C30.7358 23.305 29.8923 22.1732 29.7096 21.4797C29.532 20.7861 29.1269 18.9222 28.2894 17.8627C27.446 16.8031 27.0799 16.1096 27.5179 14.9003C27.9562 13.6966 27.6288 13.3691 26.7525 13.1139C25.8759 12.8589 24.7053 12.4925 24.4169 11.9046C24.1228 11.3222 24.3061 10.1515 24.9608 9.86315C25.6207 9.56906 26.7136 9.96849 26.7525 10.8119C26.7913 11.6496 26.3862 12.0879 26.4977 12.2709C26.6085 12.454 27.1907 12.748 27.4851 12.4208C27.7734 12.0879 27.8514 11.0669 27.557 10.1184C27.2627 9.16963 27.1188 8.50948 26.0589 8.29308C24.9996 8.07096 24.5225 8.14317 24.012 8.80333C23.5015 9.458 23.2799 10.5176 23.4295 11.2888C23.5737 12.0543 23.2796 11.616 22.7694 11.5772C22.2589 11.5438 22.4033 11.5049 21.8928 11.5438C21.3824 11.5772 21.5656 11.2497 21.5265 10.7006C21.4932 10.1513 21.4212 9.01972 20.65 8.58145C19.8843 8.14317 18.5697 8.65366 18.6028 10.4845C18.6416 12.3098 19.263 13.1861 19.6293 12.5259C19.9953 11.8712 19.8123 12.1987 19.4462 11.9046C19.0802 11.6162 18.8249 10.4068 19.2244 10.0462C19.6293 9.68012 20.1009 9.68012 20.3616 9.89652C20.6169 10.1184 21.0163 10.8508 20.9441 11.3222C20.8719 11.7993 20.833 11.8326 20.3616 12.1653C19.8845 12.4925 19.7015 12.7866 19.1524 13.1472C18.6031 13.5133 18.3869 14.3567 18.8252 14.5731C19.2634 14.795 19.3023 14.7561 19.6629 15.3055C20.0289 15.8548 20.6502 16.1098 22.1869 15.8548C23.7182 15.5996 24.3504 15.2335 25.5101 14.8284C26.3535 14.5397 26.0592 14.5731 26.3535 14.2459C26.6419 13.9187 27.119 14.3901 26.6807 14.6842C26.2425 14.9783 25.2546 15.2666 24.5227 15.5219C23.7959 15.7826 22.9527 16.5095 21.4215 16.4373C19.8848 16.3651 20.9443 16.3984 20.4672 16.3651C19.9956 16.3262 19.7737 16.3984 20.2842 16.7645C20.8001 17.1308 20.7613 17.2416 21.1996 17.3858C21.6379 17.5357 22.2203 17.5357 22.9193 17.2804C23.6128 17.0197 25.3662 16.254 25.9153 15.8879C26.4591 15.5219 26.8971 15.999 26.3535 16.3651C25.8044 16.7311 25.6545 16.6203 25.144 16.9475C24.6338 17.2804 23.685 17.8241 23.0637 18.412C22.4424 18.9944 22.2983 19.0333 21.527 19.0667C20.7616 19.1055 20.2844 18.3012 19.957 17.9351C19.6298 17.5688 19.6629 17.3527 19.2635 16.9141C18.864 16.4759 18.8252 16.5812 18.753 17.0583C18.6807 17.5354 18.1317 18.7392 17.6545 19.5438C17.1829 20.3481 17.144 21.3357 17.2163 22.0292C17.2885 22.7228 17.1054 22.7947 16.5618 23.5991C16.0125 24.4034 15.0971 26.7778 14.9529 27.5435C14.8085 28.309 14.6257 29.8846 14.6977 30.7945C14.7699 31.7099 14.5146 31.8929 13.8545 31.2716C13.1998 30.6503 12.9777 29.9568 13.0168 29.0414C13.0502 28.2592 13.1555 27.7099 13.2554 27.4215C13.3552 27.1332 13.2608 26.9334 13.0502 27.2885C12.6007 28.065 12.5785 29.4077 12.6896 29.8848C12.7949 30.3565 12.8338 31.1996 14.0378 32.3312C15.247 33.463 17.0001 35.033 18.4594 36.0926C19.9238 37.1522 20.4343 38.467 18.2763 39.4158C19.63 41.2466 20.3621 42.1951 19.7742 43.3989C20.9834 42.7053 20.5175 41.069 19.9351 40.6305C19.3469 40.1922 19.702 39.8541 20.2125 40.187C20.723 40.5142 20.906 41.1689 22.9198 41.1355C24.9279 41.0969 27.0916 40.8972 28.3014 39.1384C29.5051 37.3853 29.7382 38.861 29.4439 39.8874C29.1555 40.9082 28.4341 43.2161 29.5659 42.9997C29.7103 41.6458 30.043 40.4754 30.043 39.0164C30.043 37.5516 30.1874 36.8471 30.0766 34.728C29.9653 32.6863 30.8476 32.5476 31.7575 32.5476C32.6729 32.5476 32.3786 33.1355 31.7964 33.0967C31.2084 33.0581 30.5921 33.2799 30.5537 34.7778C30.5149 36.2757 30.5537 36.1315 30.8085 37.4797C31.0637 38.8333 31.1028 39.2328 30.881 40.7306C30.6646 42.2287 30.4813 43.0328 31.4689 43.9484C32.4508 44.8638 33.9484 44.6031 34.7198 44.0204C35.4853 43.4379 36.9446 42.0845 38.2592 41.646C39.5797 41.2077 40.9667 40.8805 41.6986 40.1482C42.4258 39.416 42.2425 38.9055 41.4767 38.5059C40.7113 38.101 39.9786 38.284 39.3964 37.6293C38.808 36.9692 38.5196 35.5099 38.736 34.739C38.9579 33.9735 39.2132 34.3007 39.2132 34.85C39.2132 35.3991 39.2468 35.9096 39.7959 36.6029C40.3449 37.2964 40.8552 37.6293 41.732 38.1729C42.6085 38.7223 43.1576 39.5988 42.0592 40.3698C40.9662 41.1353 40.3447 41.5738 39.4293 41.9398C38.5194 42.3062 37.0218 43.1825 36.1059 44.0926C35.1905 45.008 34.6802 45.8123 32.8886 45.8123C31.1021 45.8123 30.2811 45.3796 29.7487 44.3142C29.3824 43.5821 29.1991 43.6932 28.3616 43.6543C27.5182 43.621 24.7055 43.5821 22.5144 43.621C20.323 43.6543 19.5909 44.0204 18.6033 44.8247C17.6214 45.6291 17.2551 46.2506 15.3912 45.6291C13.5273 45.0075 12.5397 44.3142 9.76585 43.7652C6.98629 43.2161 8.48439 43.4711 6.80326 43.105C5.12238 42.7444 5.23319 41.9398 5.45532 41.2799C5.67172 40.6253 6.22081 39.5988 5.74368 38.2509C5.27204 36.897 5.45532 35.5102 6.73105 35.5102C8.0125 35.5102 9.21651 35.7654 9.72675 34.0843C10.2372 32.4034 10.3869 33.7182 10.2372 34.1565C10.0931 34.5948 10.0208 35.7985 8.88905 35.9818C7.75726 36.1646 7.50226 35.9096 6.80301 35.9096C6.10974 35.9096 5.82113 36.3867 6.18171 37.191C6.54777 37.9951 6.95267 38.8331 6.88071 39.5266C6.80301 40.2199 6.7308 40.4754 6.22056 41.1353C5.71007 41.7899 5.78228 42.1229 6.69768 42.3393C7.60735 42.5614 9.25511 42.9994 10.7863 43.3657C12.323 43.7261 12.4341 43.7261 15.0969 44.4253C17.7653 45.1186 18.4977 43.876 18.7141 42.3781C18.936 40.88 17.9098 39.4544 16.961 38.0285C16.0123 36.6026 14.991 34.9613 13.7482 33.4632C12.5056 31.9654 11.7732 31.8543 11.1519 32.1818C10.5303 32.5147 10.4195 32.4425 10.3862 31.5993C10.3473 30.7616 10.2751 30.2125 10.9686 28.9697C11.6621 27.7271 12.2834 26.3731 13.0158 24.2928C13.7479 22.2125 14.4026 21.8076 15.6454 20.0157C16.8883 18.2295 16.339 18.9227 17.2155 17.719C18.0921 16.5097 17.8368 16.7314 17.7648 14.8286C17.6926 12.9311 17.6207 11.8326 17.5485 9.34718ZM14.0589 24.2039C14.2477 24.4315 14.5139 23.8934 14.7913 23.6882C14.9109 23.5803 15.0012 23.4437 15.0536 23.2914C15.106 23.139 15.1188 22.9758 15.0909 22.8171C15.0632 22.6453 14.7856 22.7006 14.7303 22.7616C14.5585 22.9334 14.5971 23.2111 14.4751 23.4497C14.3363 23.738 13.8704 23.9711 14.0589 24.2039ZM29.7646 16.5702C30.1586 16.9032 30.4026 17.1918 30.6187 16.698C30.8411 16.2042 30.8411 16.0045 30.3085 15.8048C29.7813 15.5993 29.543 15.3832 29.3042 15.1112C29.0659 14.8338 28.9827 15.3055 29.1767 15.7659C29.415 16.3319 29.5537 16.3984 29.7646 16.5702ZM21.5318 12.0378C21.2598 11.9823 20.9326 12.0045 20.7493 12.2209C20.6771 12.2931 20.7105 12.4983 20.838 12.5538C21.0043 12.626 21.1154 12.4597 21.1488 12.3319C21.1655 12.2764 21.1876 12.2044 21.2432 12.1877C21.3154 12.1489 21.4207 12.1823 21.4984 12.1489C21.5873 12.1155 21.5539 12.0378 21.5318 12.0378ZM22.8244 12.0879C22.9355 12.2542 23.1352 12.2542 23.3015 12.3265C23.3902 12.3653 23.5735 12.4208 23.6288 12.2931C23.7565 11.8882 23.2072 12.0157 22.9519 12.0157C22.8966 12.0157 22.7689 11.9992 22.8244 12.0879ZM25.4877 10.3181C25.7372 10.3291 26.0756 10.7731 26.1087 11.289C26.114 11.3667 26.3251 11.361 26.3695 11.2836C26.4863 11.0784 26.4031 10.8508 26.3476 10.6067C26.3027 10.407 26.0644 10.2018 25.8647 10.1129C25.7315 10.0462 25.5928 10.0243 25.4152 10.0462C25.3709 10.0686 25.2158 10.3014 25.4877 10.3181ZM20.0451 10.1906C19.8175 10.207 19.9009 10.3846 19.9119 10.5288C20.2282 10.7063 20.2558 11.1058 20.3223 11.422C20.3278 11.544 20.5108 11.4888 20.5275 11.4499C20.6662 11.1947 20.4941 10.9063 20.4333 10.6067C20.3778 10.4513 20.2725 10.2738 20.128 10.1684C20.1061 10.1463 20.067 10.1906 20.0451 10.1906ZM27.0239 4.5929C26.7963 4.40987 26.4412 4.33766 26.3361 4.63723C26.2253 4.89247 26.2694 5.1532 26.2081 5.43061C26.2081 5.51926 26.0973 5.54142 26.0365 5.62459C25.9476 5.72993 25.9698 5.86315 26.0141 5.902C26.2253 6.1184 26.6133 5.69108 26.8964 5.54142C27.1071 5.40819 27.4119 5.58027 27.6454 5.43061C27.7117 5.38628 27.7338 5.2807 27.6674 5.19752C27.5177 4.9368 27.257 4.78714 27.0239 4.5929Z" fill="black"/>
<path fill-rule="evenodd" clip-rule="evenodd" d="M33.6035 33.6408C33.6371 33.4909 33.7143 33.1971 33.8587 33.1528C33.9088 33.1361 33.9531 33.1582 33.9695 33.2083C34.0026 33.3024 33.9028 33.8408 33.9419 33.9628C33.9862 34.0903 34.1359 34.0736 34.2415 34.0405C34.491 33.9571 34.6354 33.6633 34.6242 33.6356C34.6242 33.6244 34.6185 33.6244 34.6078 33.6244C34.5689 33.6356 34.5353 33.7743 34.4245 33.8072C34.3525 33.8296 34.297 33.8184 34.2746 33.7464C34.2527 33.6687 34.347 33.1139 34.3022 32.9862C34.2639 32.8587 34.1359 32.8253 34.0139 32.8642C33.7419 32.9531 33.6256 33.3689 33.5537 33.6132H33.5479L33.5868 33.0417L33.2484 33.1528L33.2319 34.3344L33.5482 34.2288C33.5539 34.0236 33.5646 33.7905 33.6035 33.6408ZM35.0685 33.7683C35.3399 33.6797 35.4619 33.358 35.4507 33.3189C35.4455 33.3079 35.44 33.3022 35.4288 33.3022C35.4064 33.3134 35.3568 33.4964 35.2012 33.5462C35.1344 33.5686 35.0737 33.5517 35.0572 33.5076C35.0348 33.4409 35.0515 33.3246 35.0515 33.2245L35.0627 32.6918L35.4343 32.5698L35.429 32.4421L35.0575 32.5641L35.0739 32.0593L34.7412 32.2481L34.7243 33.3741C34.7243 33.4962 34.7136 33.6015 34.7355 33.6573C34.7796 33.8017 34.9295 33.8184 35.0685 33.7683Z" fill="black"/>
</g>
<defs>
<clipPath id="clip0_1039_9872">
<rect width="48" height="48" fill="white"/>
</clipPath>
</defs>
</svg>
