<svg width="48" height="48" viewBox="0 0 48 48" fill="none" xmlns="http://www.w3.org/2000/svg">
<g clip-path="url(#clip0_1039_9794)">
<path fill-rule="evenodd" clip-rule="evenodd" d="M24 0C10.572 0 0.165283 9.8261 0.165283 23.097C0.165283 30.0389 3.01389 36.0371 7.65141 40.1813C8.03991 40.531 8.2748 41.0149 8.29399 41.5371L8.42353 45.7722C8.46667 47.1232 9.8622 48 11.0996 47.4586L15.8281 45.3746C16.2282 45.1976 16.677 45.1638 17.099 45.2788C19.2714 45.8776 21.5878 46.1938 24 46.1938C37.428 46.1938 47.8347 36.3677 47.8347 23.0969C47.8347 9.8261 37.428 0 24 0Z" fill="url(#paint0_linear_1039_9794)"/>
<path fill-rule="evenodd" clip-rule="evenodd" d="M9.68963 29.8521L16.6913 18.7565C17.8039 16.9934 20.1922 16.5526 21.8611 17.8031L27.4289 21.9759C27.6776 22.1618 27.98 22.2619 28.2905 22.261C28.601 22.2602 28.9029 22.1584 29.1506 21.9712L36.6703 16.2699C37.6725 15.5083 38.9867 16.7108 38.3103 17.7743L31.3134 28.8652C30.2008 30.6283 27.8126 31.0691 26.1437 29.8186L20.5759 25.6458C20.3272 25.4599 20.0248 25.3598 19.7143 25.3607C19.4037 25.3615 19.1019 25.4633 18.8542 25.6505L11.3297 31.3566C10.3275 32.1183 9.01332 30.9157 9.68963 29.8521Z" fill="white"/>
</g>
<defs>
<linearGradient id="paint0_linear_1039_9794" x1="9534.05" y1="0" x2="9534.05" y2="19180.7" gradientUnits="userSpaceOnUse">
<stop stop-color="#00B2FF"/>
<stop offset="1" stop-color="#006AFF"/>
</linearGradient>
<clipPath id="clip0_1039_9794">
<rect width="48" height="48" fill="white"/>
</clipPath>
</defs>
</svg>
