<svg width="56" height="56" viewBox="0 0 56 56" fill="none" xmlns="http://www.w3.org/2000/svg">
<g clip-path="url(#clip0_1039_9772)" filter="url(#filter0_d_1039_9772)">
<path d="M46 0H10C6.68629 0 4 2.68629 4 6V42C4 45.3137 6.68629 48 10 48H46C49.3137 48 52 45.3137 52 42V6C52 2.68629 49.3137 0 46 0Z" fill="#7B519D"/>
<path fill-rule="evenodd" clip-rule="evenodd" d="M43.5544 32.3866C42.4109 31.4659 41.1888 30.6396 39.9859 29.7955C37.5869 28.1105 35.3925 27.9796 33.6024 30.6904C32.5971 32.2124 31.1898 32.279 29.7183 31.6114C25.6618 29.772 22.5293 26.9379 20.6944 22.8148C19.8827 20.9906 19.8934 19.3551 21.7925 18.0649C22.798 17.3826 23.811 16.5753 23.73 15.0844C23.6242 13.1404 18.9042 6.64376 17.0402 5.95807C16.269 5.67429 15.5009 5.69276 14.7162 5.95648C10.3455 7.42629 8.53523 11.0208 10.269 15.2768C15.4411 27.9745 24.5433 36.8142 37.073 42.2095C37.7874 42.5167 38.581 42.6395 38.9828 42.7498C41.8354 42.7785 45.1771 40.0301 46.1422 37.3025C47.0714 34.6785 45.1077 33.6369 43.5544 32.3866ZM29.5055 7.25988C38.6655 8.66848 42.89 13.0241 44.0564 22.25C44.1646 23.1022 43.8472 24.3845 45.063 24.4082C46.3337 24.4324 46.0275 23.1691 46.0382 22.316C46.1457 13.6269 38.5693 5.57173 29.7704 5.27473C29.1065 5.37026 27.7329 4.81695 27.6472 6.30485C27.5901 7.30798 28.7466 7.14317 29.5055 7.25988Z" fill="white"/>
<path fill-rule="evenodd" clip-rule="evenodd" d="M31.2972 9.7896C30.4162 9.68347 29.253 9.26835 29.0471 10.4908C28.8322 11.774 30.1285 11.6437 30.9615 11.8302C36.6189 13.0946 38.5888 15.1537 39.5203 20.7656C39.6564 21.5837 39.3861 22.8571 40.7765 22.6461C41.8069 22.4892 41.4347 21.3976 41.5209 20.76C41.5665 15.3722 36.9498 10.4683 31.2972 9.7896Z" fill="white"/>
<path fill-rule="evenodd" clip-rule="evenodd" d="M31.8168 14.1953C31.2287 14.2098 30.6514 14.2735 30.4353 14.902C30.1106 15.8413 30.7936 16.0653 31.4887 16.177C33.8095 16.5495 35.0309 17.918 35.2627 20.2323C35.3254 20.8604 35.724 21.3694 36.3307 21.2978C37.1716 21.1975 37.2476 20.4491 37.2218 19.7383C37.2634 17.1383 34.3246 14.133 31.8168 14.1953Z" fill="white"/>
</g>
<defs>
<filter id="filter0_d_1039_9772" x="0" y="0" width="56" height="56" filterUnits="userSpaceOnUse" color-interpolation-filters="sRGB">
<feFlood flood-opacity="0" result="BackgroundImageFix"/>
<feColorMatrix in="SourceAlpha" type="matrix" values="0 0 0 0 0 0 0 0 0 0 0 0 0 0 0 0 0 0 127 0" result="hardAlpha"/>
<feOffset dy="4"/>
<feGaussianBlur stdDeviation="2"/>
<feComposite in2="hardAlpha" operator="out"/>
<feColorMatrix type="matrix" values="0 0 0 0 0 0 0 0 0 0 0 0 0 0 0 0 0 0 0.25 0"/>
<feBlend mode="normal" in2="BackgroundImageFix" result="effect1_dropShadow_1039_9772"/>
<feBlend mode="normal" in="SourceGraphic" in2="effect1_dropShadow_1039_9772" result="shape"/>
</filter>
<clipPath id="clip0_1039_9772">
<rect width="48" height="48" fill="white" transform="translate(4)"/>
</clipPath>
</defs>
</svg>
