<svg width="48" height="48" viewBox="0 0 48 48" fill="none" xmlns="http://www.w3.org/2000/svg">
<path d="M31.9995 23.5193C27.6106 21.1739 23.4082 19.0176 19.1125 16.7664V30.2341C23.6329 27.7768 28.3975 25.5264 32.0182 23.5193H31.9995Z" fill="white"/>
<path d="M31.9995 23.5193C27.6106 21.1739 19.1125 16.7664 19.1125 16.7664L30.4427 24.3817C30.4427 24.3817 28.3788 25.5264 31.9995 23.5193Z" fill="#E8E0E0"/>
<path d="M19.9383 40.7766C10.8222 40.6087 7.70856 40.4578 5.79474 40.0635C4.49991 39.8015 3.37471 39.2198 2.54968 38.3761C1.91204 37.7376 1.40494 36.7633 1.01152 35.4117C0.674052 34.2856 0.542615 33.3487 0.35523 31.0601C0.0683792 25.895 -3.21865e-06 21.6722 0.35523 16.9538C0.648297 14.3481 0.79039 11.2549 2.73707 9.45035C3.65623 8.60579 4.72549 8.06228 5.92618 7.8376C7.80181 7.48147 15.7928 7.19995 24.0653 7.19995C32.3191 7.19995 40.3278 7.48147 42.2053 7.8376C43.7052 8.11912 45.1119 8.9628 45.9379 10.0507C47.714 12.8446 47.7451 16.3188 47.9254 19.0363C48 20.3311 48 27.6836 47.9254 28.9784C47.6448 33.2732 47.4192 34.7927 46.7815 36.3682C46.3872 37.3628 46.0507 37.8877 45.4681 38.4694C44.5544 39.3645 43.3896 39.9599 42.1289 40.1763C34.24 40.7695 27.5412 40.8983 19.9383 40.7766ZM32.0189 23.5194C27.63 21.1739 23.4276 18.999 19.132 16.7477V30.2164C23.6523 27.7591 28.4178 25.5078 32.0376 23.5007L32.0189 23.5194Z" fill="#CD201F"/>
</svg>
