<svg width="180" height="73" viewBox="0 0 180 73" fill="none" xmlns="http://www.w3.org/2000/svg">
<g clip-path="url(#clip0_33_316)">
<path d="M19.8573 2.92126V57.9664C19.8573 58.9505 20.7792 59.6963 21.7322 59.4477C34.5042 55.988 43.8994 44.3139 43.8994 30.4438C43.8994 16.5738 34.5042 4.91009 21.7218 1.43999C20.7792 1.18102 19.8469 1.9372 19.8469 2.92126H19.8573Z" fill="white"/>
<path d="M51.6061 31.6402C51.6061 27.2152 48.0189 23.6279 43.5938 23.6279C39.1687 23.6279 35.5815 27.2152 35.5815 31.6402C35.5815 36.0653 39.1687 39.6526 43.5938 39.6526C48.0189 39.6526 51.6061 36.0653 51.6061 31.6402Z" fill="#FFAF15"/>
<path d="M16.4804 8.24538C16.4804 3.69158 12.7911 0 8.2402 0C3.68926 0 0 3.69158 0 8.24538V63.8706C0 68.4244 3.68926 72.116 8.2402 72.116C12.7911 72.116 16.4804 68.4244 16.4804 63.8706V8.24538Z" fill="white"/>
<path d="M64.3678 27.4607C65.5694 24.8193 67.6411 23.5659 69.7543 23.5659C71.1009 23.5659 71.9192 23.9492 72.5407 24.2392L70.5726 29.7189C70.0961 29.4806 69.371 29.1906 68.6977 29.1906C66.8746 29.1906 65.4244 31.3037 65.2794 35.0535C65.2276 36.4519 65.2276 38.0368 65.2276 39.4352V49.773H58.826V24.2392H64.3575V27.4607H64.3678Z" fill="white"/>
<path d="M81.1486 17.9411C81.1486 20.1993 79.3255 22.0327 77.057 22.0327C74.7885 22.0327 72.9654 19.961 72.9654 17.6096C72.9654 15.3929 74.8403 13.7148 77.057 13.7148C79.2738 13.7148 81.1486 15.6415 81.1486 17.9515V17.9411ZM73.8873 24.2391H80.2889V49.7729H73.8873V24.2391Z" fill="white"/>
<path d="M82.112 24.2393H88.6482L95.0912 39.2902L101.534 24.2393H108.029L97.1629 49.773H93.0299L82.112 24.2393Z" fill="white"/>
<path d="M129.471 47.0798C127.213 49.2965 124.81 50.4463 121.588 50.4463C115.094 50.4463 109.417 44.863 109.417 37.032C109.417 29.201 114.803 23.5659 121.443 23.5659C124.52 23.5659 127.161 24.7157 129.471 27.0257V24.2392H135.862V49.773H129.471V47.0798ZM115.86 36.9802C115.86 41.3515 118.74 44.573 122.738 44.573C126.736 44.573 129.761 41.5897 129.761 36.9284C129.761 32.2671 126.778 29.4288 122.738 29.4288C118.698 29.4288 115.86 32.7954 115.86 36.9802Z" fill="white"/>
<path d="M141.87 14.813H148.261V24.2392H152.063V29.7189H148.261V49.773H141.87V29.7189H138.597V24.2392H141.87V14.813Z" fill="white"/>
<path d="M178.27 44.8216C175.525 48.7164 171.92 50.4463 166.534 50.4463C158.402 50.4463 153.161 44.4798 153.161 36.9802C153.161 30.0089 158.206 23.5659 166.43 23.5659C174.655 23.5659 179.99 29.3356 179.99 37.4153C179.99 37.9953 179.938 38.2854 179.938 38.8551H159.355C159.977 42.6567 162.867 44.7698 166.524 44.7698C169.269 44.7698 171.092 44.0033 172.873 42.2734L178.26 44.8216H178.27ZM173.557 33.8105C172.687 30.8272 169.952 29.0041 166.534 29.0041C163.364 29.0041 160.909 30.589 159.656 33.8105H173.557Z" fill="white"/>
</g>
<defs>
<clipPath id="clip0_33_316">
<rect width="180" height="72.116" fill="white"/>
</clipPath>
</defs>
</svg>
