<svg width="349" height="416" viewBox="0 0 349 416" fill="none" xmlns="http://www.w3.org/2000/svg">
    <g opacity="0.2">
        <g clip-path="url(#clip0_1025_11502)">
            <path d="M141.753 27.8707C138.957 26.8276 135.848 28.252 134.804 31.0438C133.761 33.84 135.186 36.9491 137.977 37.9928C140.774 39.036 143.883 37.6116 144.926 34.8198C145.97 32.0235 144.545 28.9144 141.753 27.8707ZM140.07 31.9277C139.167 31.5911 138.709 30.59 139.046 29.6879C139.382 28.7857 140.384 28.3275 141.286 28.6641C142.188 29.0007 142.646 30.0018 142.31 30.9039C141.973 31.8061 140.972 32.2643 140.07 31.9277Z" fill="#FFA81F"/>
            <path d="M140.501 37.8399L139.025 35.7488L136.189 36.2343L136.117 36.437L132.035 47.3854L132.532 48.4758L134.104 49.0623L135.907 48.2391L136.477 46.7089L135.864 45.3145L137.031 44.7808L136.533 43.686L137.619 43.1897L137.086 42.0276L138.401 41.4252L137.873 40.2625L139.898 39.4554L140.501 37.8399Z" fill="#FFA81F"/>
            <path d="M225.764 54.4386L207.937 63.627L214.389 76.1452L232.216 66.9569L225.764 54.4386Z" fill="white" stroke="#878787" stroke-miterlimit="10"/>
            <path d="M223.192 62.3595C221.46 63.3487 221.65 67.9487 221.303 68.6049C221.303 68.6049 217.833 66.7326 216.84 67.8414C215.852 68.9497 214.646 76.0276 214.646 76.0276C214.76 75.9679 232.219 66.9701 232.219 66.9701C232.219 66.9701 224.92 61.3709 223.188 62.3601L223.192 62.3595Z" fill="#CCBFD5"/>
            <path d="M220.183 62.1307C220.698 63.1154 220.315 64.3202 219.333 64.8209C218.351 65.3216 217.136 64.9313 216.626 63.9459C216.111 62.9612 216.494 61.7564 217.476 61.2557C218.458 60.755 219.673 61.1454 220.183 62.1307Z" fill="#CCBFD5"/>
            <path d="M115.147 33.9158L95.0869 32.5193L94.1088 46.5686L114.169 47.9651L115.147 33.9158Z" fill="white" stroke="#878787" stroke-miterlimit="10"/>
            <path d="M115.151 33.9152L95.1437 32.5225L94.1657 46.5717L114.173 47.9645L115.151 33.9152Z" fill="white"/>
            <path d="M94.4539 46.5909C94.5855 46.6007 114.173 47.964 114.173 47.964C114.173 47.964 110.839 39.3911 108.846 39.3401C106.852 39.2891 104.626 43.3179 103.992 43.7013C103.992 43.7013 101.995 40.2982 100.573 40.7347C99.1552 41.1663 94.4544 46.5953 94.4544 46.5953L94.4539 46.5909Z" fill="#FF9CB1"/>
            <path d="M106.353 37.44C106.43 36.3375 105.612 35.3825 104.527 35.3069C103.442 35.2314 102.499 36.0639 102.423 37.1664C102.346 38.2688 103.164 39.2238 104.249 39.2994C105.334 39.375 106.276 38.5425 106.353 37.44Z" fill="#FF9CB1"/>
            <path d="M191.758 33.0138L172.403 24.865L162.464 48.471L181.819 56.6197L191.758 33.0138Z" fill="white"/>
            <path d="M172.29 31.0732C177.221 33.1512 182.151 35.2247 187.082 37.3027" stroke="#878787" stroke-miterlimit="10"/>
            <path d="M171.71 32.4521C176.641 34.5301 181.571 36.6036 186.501 38.6816" stroke="#878787" stroke-miterlimit="10"/>
            <path d="M171.13 33.8352C176.061 35.9132 180.991 37.9867 185.922 40.0646" stroke="#878787" stroke-miterlimit="10"/>
            <path d="M170.55 35.2141C175.481 37.2921 180.411 39.3656 185.342 41.4436" stroke="#878787" stroke-miterlimit="10"/>
            <path d="M169.965 36.5933C174.896 38.6712 179.826 40.7447 184.757 42.8227" stroke="#878787" stroke-miterlimit="10"/>
            <path d="M169.385 37.9722C174.316 40.0501 179.246 42.1237 184.177 44.2016" stroke="#878787" stroke-miterlimit="10"/>
            <path d="M168.971 39.3877C173.902 41.4656 178.832 43.5392 183.763 45.6171" stroke="#878787" stroke-miterlimit="10"/>
            <path d="M168.21 40.8977C173.141 42.9757 178.071 45.0492 183.002 47.1271" stroke="#878787" stroke-miterlimit="10"/>
            <path d="M167.546 42.2832C172.476 44.3612 177.406 46.4347 182.337 48.5126" stroke="#878787" stroke-miterlimit="10"/>
            <path d="M167.046 43.6245C171.977 45.7025 176.907 47.776 181.837 49.854" stroke="#878787" stroke-miterlimit="10"/>
            <path d="M166.375 45.2083C171.306 47.2862 176.236 49.3597 181.167 51.4377" stroke="#878787" stroke-miterlimit="10"/>
            <path d="M173.028 29.2786C174.725 29.9927 176.422 30.7068 178.124 31.4248" stroke="#878787" stroke-miterlimit="10"/>
            <path d="M254.68 15.6648C254.563 14.5609 253.637 5.77819 253.637 5.77819C253.637 5.77819 259.751 5.96306 263.428 1.78622C267.895 5.10196 273.836 3.65085 273.836 3.65085C273.836 3.65085 274.763 12.438 274.879 13.5375C274.996 14.6414 275.191 17.3889 272.489 21.0794C269.791 24.7694 266.06 26.7691 266.06 26.7691C266.06 26.7691 261.998 25.594 258.586 22.5455C255.174 19.4971 254.792 16.7693 254.675 15.6654L254.68 15.6648Z" fill="#0023AC"/>
            <path d="M264.506 17.3355L260.099 14.3804L261.345 12.5241L264.073 14.3492L268.34 9.2148L270.058 10.6453L264.506 17.3355Z" fill="#00B15F"/>
            <path d="M272.766 56.1166L248.765 50.9901C248.428 50.9172 248.214 50.5855 248.287 50.2479L252.215 31.8635C252.379 31.0871 253.147 30.5919 253.923 30.7561L262.128 32.5072C262.669 32.6212 263.096 33.0375 263.224 33.5737L263.812 35.9915C263.861 36.1919 264.02 36.3465 264.223 36.3875L276.201 38.9469C276.534 39.0205 276.751 39.3428 276.682 39.6798L273.506 55.6249C273.438 55.9663 273.103 56.1852 272.761 56.1128L272.766 56.1166Z" fill="#FF7439"/>
            <path d="M261.438 33.4953L254.329 31.9763L253.879 34.0814L260.988 35.6004L261.438 33.4953Z" fill="white"/>
            <path d="M132.691 70.3048L165.27 73.3054C166.433 73.4124 167.291 74.4448 167.184 75.6075L165.349 95.5295C165.242 96.6923 164.21 97.5505 163.047 97.4434L130.468 94.4428C129.305 94.3357 128.447 93.3033 128.554 92.1406L130.389 72.2186C130.496 71.0559 131.528 70.1977 132.691 70.3048Z" fill="#007EF3"/>
            <path d="M141.053 74.5426L135.559 74.0365C135.143 73.9982 134.774 74.3048 134.735 74.7215L134.381 78.5692C134.343 78.9859 134.649 79.3548 135.066 79.3931L140.56 79.8992C140.977 79.9375 141.346 79.6309 141.384 79.2142L141.738 75.3665C141.777 74.9498 141.47 74.5809 141.053 74.5426Z" fill="#FFA81F"/>
            <path d="M163.333 76.6394L156.086 75.9719L155.716 79.9883L162.963 80.6558L163.333 76.6394Z" fill="#0023AC"/>
            <path d="M139.097 85.235L133.572 84.7261L133.412 86.4702L138.937 86.9791L139.097 85.235Z" fill="#0023AC"/>
            <path d="M147.071 85.9686L141.546 85.4597L141.385 87.2038L146.91 87.7127L147.071 85.9686Z" fill="#0023AC"/>
            <path d="M155.049 86.7015L149.523 86.1926L149.363 87.9367L154.888 88.4456L155.049 86.7015Z" fill="#0023AC"/>
            <path d="M163.022 87.4352L157.497 86.9263L157.336 88.6704L162.861 89.1793L163.022 87.4352Z" fill="#0023AC"/>
            <path d="M140.327 91.9539L133.094 91.2876L133.027 92.0065L140.261 92.6728L140.327 91.9539Z" fill="#0023AC"/>
            <path d="M216.897 11.1388L203.209 26.1487C202.794 26.6033 202.827 27.308 203.282 27.7227L216.619 39.8849C217.073 40.2995 217.778 40.2671 218.193 39.8124L231.88 24.8025C232.295 24.3478 232.263 23.6431 231.808 23.2285L218.471 11.0663C218.016 10.6516 217.311 10.6841 216.897 11.1388Z" fill="#FFA81F"/>
            <path d="M213.663 13.0518L214.483 13.799L216.056 12.0665L215.169 11.2605C211.67 8.05718 206.12 8.30237 202.87 11.8618C199.621 15.4257 199.889 20.9772 203.463 24.2382L204.269 24.9739L205.854 23.2353L205.049 22.4996C202.433 20.1161 202.238 16.0563 204.614 13.4508C206.989 10.8454 211.052 10.6678 213.667 13.0512" fill="#0023AC"/>
            <mask id="mask0_1025_11502" style="mask-type:luminance" maskUnits="userSpaceOnUse" x="202" y="10" width="31" height="31">
                <path d="M216.897 11.1388L203.209 26.1487C202.794 26.6033 202.827 27.308 203.282 27.7227L216.619 39.8849C217.073 40.2995 217.778 40.2671 218.193 39.8124L231.88 24.8025C232.295 24.3478 232.262 23.6431 231.808 23.2285L218.471 11.0663C218.016 10.6516 217.311 10.6841 216.897 11.1388Z" fill="white"/>
            </mask>
            <g mask="url(#mask0_1025_11502)">
                <path d="M223.609 9.32281C223.609 9.32281 223.51 12.0502 223.122 17.0892C222.721 22.13 222.02 29.4884 220.569 38.688L220.455 38.6759C220.91 31.2192 221.451 22.3131 222.057 12.3559L222.203 12.3729C221.017 20.4595 219.692 29.4899 218.282 39.1067L218.112 39.0838C219.237 30.3131 220.446 20.8438 221.709 10.99L221.889 11.0251C219.429 20.4187 217.572 30.4352 216.516 40.8015C216.449 41.4663 216.387 42.1305 216.324 42.7859L216.138 42.7696C217.263 31.3383 218.351 20.2444 219.393 9.66424L219.57 9.68161C218.424 19.8394 217.328 29.5276 216.301 38.6002L216.138 38.5855C216.786 29.5037 217.388 21.0662 217.935 13.3503L218.077 13.3678C216.241 22.6849 215.286 30.9976 214.783 38.056L214.674 38.0477C215.176 29.5288 215.569 22.8038 215.838 18.2026C215.975 15.9062 216.083 14.1394 216.152 12.9439C216.192 12.35 216.218 11.8972 216.237 11.5936C216.256 11.29 216.272 11.1352 216.272 11.1352C216.272 11.1352 216.269 11.2883 216.255 11.5913C216.241 11.8987 216.214 12.3472 216.183 12.9443C216.119 14.1393 216.02 15.9048 215.897 18.204C215.636 22.804 215.262 29.5356 214.783 38.0516L214.674 38.0433C215.162 30.9822 216.107 22.6574 217.933 13.3326L218.074 13.3502C217.532 21.0699 216.939 29.5063 216.295 38.5875L216.131 38.5728C217.153 29.4964 218.24 19.8093 219.387 9.65156L219.564 9.66892C218.526 20.2485 217.439 31.3468 216.314 42.7737L216.127 42.7575C216.19 42.0977 216.257 41.4374 216.319 40.7731C217.378 30.3974 219.239 20.3716 221.702 10.9729L221.882 11.008C220.615 20.8623 219.401 30.3278 218.276 39.0985L218.107 39.0755C219.526 29.4576 220.856 20.431 222.051 12.3432L222.197 12.3602C221.577 22.3147 221.022 31.2181 220.558 38.6759L220.444 38.6638C221.909 29.4668 222.63 22.1149 223.049 17.0763C223.256 14.5551 223.381 12.6153 223.467 11.3053C223.508 10.6528 223.537 10.1546 223.557 9.81948C223.576 9.48439 223.595 9.3157 223.595 9.3157L223.609 9.32281Z" fill="white"/>
            </g>
            <path d="M217.455 22.6214C216.532 21.7796 215.098 21.8448 214.256 22.7677C213.414 23.6906 213.48 25.1248 214.402 25.9665C215.127 26.6274 216.155 26.723 216.975 26.2927L219.001 30.1595L222.054 26.8144L218.018 25.1549C218.37 24.3002 218.179 23.2823 217.455 22.6214Z" fill="#000E39"/>
            <path d="M100.84 79.1483L78.5463 89.4354C78.2325 89.5795 77.8598 89.4437 77.7156 89.1299L69.8325 72.052C69.5005 71.3311 69.8164 70.4766 70.5367 70.1403L78.1601 66.6233C78.6603 66.392 79.25 66.4681 79.6779 66.8215L81.6007 68.4052C81.7616 68.537 81.9806 68.5625 82.1676 68.4797L93.2972 63.343C93.6066 63.1994 93.9743 63.3313 94.1223 63.6402L101.144 78.3132C101.293 78.6265 101.158 79.0036 100.845 79.1522L100.84 79.1483Z" fill="#FFA81F"/>
            <path d="M78.1995 67.8282L71.5957 70.8765L72.4979 72.8309L79.1017 69.7826L78.1995 67.8282Z" fill="white"/>
            <mask id="mask1_1025_11502" style="mask-type:luminance" maskUnits="userSpaceOnUse" x="69" y="63" width="33" height="27">
                <path d="M100.84 79.1483L78.5463 89.4354C78.2325 89.5795 77.8598 89.4437 77.7156 89.1299L69.8325 72.052C69.5005 71.3311 69.8164 70.4766 70.5367 70.1403L78.1601 66.6233C78.6603 66.392 79.25 66.4681 79.6779 66.8215L81.6007 68.4052C81.7616 68.537 81.9806 68.5625 82.1676 68.4797L93.2972 63.343C93.6066 63.1994 93.9743 63.3313 94.1223 63.6402L101.144 78.3132C101.293 78.6265 101.158 79.0036 100.845 79.1522L100.84 79.1483Z" fill="white"/>
            </mask>
            <g mask="url(#mask1_1025_11502)">
                <path d="M76.567 100.69C76.567 100.69 76.692 100.476 76.9437 100.061C77.1998 99.646 77.5743 99.0355 78.0635 98.2349C79.0456 96.6286 80.4911 94.2654 82.3191 91.2143C85.9756 85.1166 91.1631 76.2761 97.1823 65.2601L97.3022 65.3524C94.06 68.484 91.0156 72.2729 88.1792 76.5203C85.3339 80.7687 82.6859 85.4634 79.9616 90.3658L79.802 90.2787C83.8805 82.6565 88.7574 74.6069 94.383 66.6128L94.5378 66.732C92.2501 69.6002 89.8739 72.6865 87.5408 75.8617C83.9243 80.7812 80.5357 85.725 77.3835 90.6201L77.2178 90.5203C82.5731 80.8625 88.2356 72.0456 93.8244 64.2181L93.9599 64.3263C85.9352 73.4683 79.646 82.3037 74.8383 89.9174L74.7257 89.8466C79.81 82.0442 83.8864 75.7885 86.6927 71.4822C88.0984 69.331 89.1858 67.6705 89.9243 66.5408C90.2919 65.9807 90.5734 65.5531 90.7649 65.2631C90.957 64.9774 91.0552 64.8343 91.0552 64.8343C91.0552 64.8343 90.9669 64.9851 90.7799 65.2746C90.5934 65.5685 90.3163 65.9955 89.9537 66.5595C89.2246 67.6925 88.1472 69.3606 86.7515 71.5195C83.9558 75.8379 79.8987 82.1046 74.8383 89.9174L74.7257 89.8466C79.5229 82.2209 85.8015 73.3733 93.8283 64.2131L93.9637 64.3213C88.3881 72.1472 82.7301 80.9634 77.383 90.6157L77.2172 90.5159C80.3688 85.6164 83.7568 80.6682 87.3777 75.7481C89.7103 72.5685 92.0864 69.4821 94.3785 66.6134L94.5334 66.7326C88.911 74.7173 84.033 82.758 79.9534 90.3714L79.7937 90.2843C82.5225 85.3813 85.1743 80.6816 88.0284 76.432C90.8731 72.1791 93.9301 68.384 97.1894 65.2457L97.5487 64.8979L97.3087 65.3336C91.2751 76.3425 86.0638 85.1726 82.3878 91.2593C80.5499 94.3027 79.09 96.6587 78.0978 98.2573C77.5993 99.0547 77.2197 99.6614 76.9586 100.073C76.702 100.484 76.5626 100.691 76.5626 100.691L76.567 100.69Z" fill="white"/>
            </g>
        </g>
    </g>
    <g clip-path="url(#clip1_1025_11502)">
        <path d="M345.235 360.978C342.069 380.411 327.79 395.459 312.591 408.609C310.467 410.444 308.342 412.244 306.213 414.009C306.195 414.021 306.184 414.032 306.166 414.044C306.062 414.131 305.964 414.211 305.865 414.298C305.425 414.661 304.985 415.025 304.546 415.383L304.818 415.469L305.668 415.729C305.373 415.648 305.084 415.573 304.794 415.492C304.708 415.469 304.615 415.446 304.528 415.423C294.451 412.711 284.172 409.734 275.936 403.375C267.387 396.775 261.506 385.517 264.452 375.149C264.84 373.793 265.378 372.477 266.061 371.237C266.339 370.717 266.646 370.216 266.97 369.719C273.024 360.234 285.648 357.441 295.158 363.482C298.324 365.49 300.876 368.334 302.526 371.693C302.381 360.268 291.91 351.936 282.094 346.034C272.272 340.143 261.147 333.773 258.057 322.763C256.332 316.636 257.785 310.329 261.165 304.998C261.269 304.836 261.373 304.675 261.483 304.513C265.627 298.282 271.982 293.833 279.275 292.067C292.877 288.992 307.139 294.658 318.292 303.007C336.252 316.44 348.829 338.873 345.229 360.966L345.235 360.978Z" fill="#E9EEF9"/>
        <path d="M316.382 339.508C319.519 343.293 322.089 347.511 324.005 352.034C325.654 356.085 326.685 360.355 327.061 364.711C327.888 373.654 326.187 382.696 322.789 390.97C320.15 397.253 316.723 403.179 312.591 408.609C310.467 410.444 308.342 412.244 306.212 414.009C306.195 414.021 306.184 414.032 306.166 414.044C306.062 414.131 305.964 414.211 305.865 414.298C305.425 414.661 304.985 415.025 304.546 415.383L304.818 415.469L305.668 415.729C305.373 415.648 305.084 415.573 304.794 415.492C304.708 415.469 304.615 415.446 304.528 415.423C304.557 400.929 297.531 387.323 285.683 378.917C279.837 374.849 273.117 372.218 266.056 371.237C266.333 370.717 266.64 370.216 266.964 369.719C269.696 370.14 272.382 370.804 274.998 371.698C284.34 374.866 292.408 380.953 298.011 389.049C303.046 396.405 305.877 405.043 306.16 413.952C306.513 413.548 306.867 413.138 307.202 412.728C313.685 405.066 319.235 396.498 322.54 386.983C325.434 378.911 326.285 370.256 325.035 361.78C323.559 352.548 318.819 344.401 312.55 337.563C305.836 330.247 297.774 324.027 289.341 318.817C280.699 313.468 271.433 309.193 261.749 306.083C261.298 305.933 261.037 305.459 261.165 304.998C261.205 304.802 261.315 304.629 261.483 304.513C261.657 304.409 261.871 304.398 262.056 304.467C263.254 304.854 264.441 305.246 265.621 305.661C275.473 309.129 284.849 313.803 293.543 319.573C301.935 325.135 309.998 331.667 316.376 339.496L316.382 339.508Z" fill="white"/>
        <path d="M145.099 295.131C143.09 295.131 141.423 293.573 141.296 291.571L140.729 282.945C140.59 280.845 142.187 279.033 144.288 278.9L212.071 274.475C216.563 274.181 220.446 277.573 220.742 282.051C221.037 286.528 217.633 290.4 213.142 290.694L145.359 295.12C145.272 295.12 145.191 295.125 145.104 295.125L145.099 295.131Z" fill="#F9AEAE"/>
        <path d="M158.469 296.245C156.42 296.245 154.736 294.623 154.655 292.581L154.174 279.697C154.093 277.596 155.737 275.831 157.85 275.75L213.588 273.673C215.694 273.592 217.466 275.236 217.547 277.337L218.027 290.221C218.108 292.321 216.464 294.087 214.352 294.168L158.614 296.245C158.567 296.245 158.515 296.245 158.469 296.245Z" fill="#2F2E41"/>
        <path d="M223.786 414.996H215.116C213.009 414.996 211.301 413.288 211.296 411.188V339.15C211.296 337.05 213.009 335.348 215.116 335.342H223.786C225.893 335.342 227.6 337.05 227.606 339.15V411.188C227.606 413.288 225.893 414.99 223.786 414.996Z" fill="#2F2E41"/>
        <path d="M185.302 376.914L177.887 372.437C176.087 371.346 175.509 369.01 176.603 367.209L214.062 305.604C215.156 303.809 217.5 303.232 219.306 304.323L226.721 308.8C228.521 309.891 229.099 312.228 228.006 314.028L190.546 375.634C189.452 377.428 187.108 378.005 185.302 376.914Z" fill="#2F2E41"/>
        <path d="M210.618 260.16C227.164 260.16 240.577 246.789 240.577 230.294C240.577 213.8 227.164 200.429 210.618 200.429C194.073 200.429 180.66 213.8 180.66 230.294C180.66 246.789 194.073 260.16 210.618 260.16Z" fill="#F9AEAE"/>
        <path d="M194.401 240.49C193.434 240.173 192.554 239.659 191.808 238.972C190.806 237.98 190.297 236.601 190.413 235.199C190.476 234.201 191.003 233.289 191.842 232.735C192.913 232.048 194.348 232.048 195.807 232.689L195.749 221.028H196.924L196.988 234.731L196.085 234.166C195.037 233.508 193.538 233.047 192.479 233.722C191.946 234.085 191.617 234.674 191.588 235.314C191.507 236.359 191.889 237.386 192.624 238.124C193.92 239.359 195.813 239.746 197.972 240.092L197.787 241.246C196.641 241.096 195.506 240.842 194.406 240.49H194.401Z" fill="#2F2E41"/>
        <path d="M183.622 220.432L183.468 221.593L189.74 222.418L189.894 221.257L183.622 220.432Z" fill="#2F2E41"/>
        <path d="M203.427 223.043L203.274 224.204L209.546 225.03L209.699 223.868L203.427 223.043Z" fill="#2F2E41"/>
        <path d="M235.634 358.479H185.117C182.362 358.479 180.127 356.252 180.122 353.5L190.696 272.646C190.714 269.911 192.942 267.701 195.685 267.707H213.617C228.526 267.724 240.612 279.772 240.629 294.635V353.5C240.629 356.246 238.395 358.474 235.634 358.479Z" fill="#2F2E41"/>
        <path d="M222.912 354.163C222.287 355.531 220.909 356.396 219.405 356.385L210.734 356.31C208.627 356.293 206.931 354.573 206.949 352.473L207.539 284.757C207.574 280.268 211.249 276.656 215.752 276.69C220.255 276.725 223.879 280.389 223.844 284.878C223.844 284.878 223.844 284.89 223.844 284.895L223.254 352.611C223.254 353.148 223.132 353.673 222.906 354.163H222.912Z" fill="#F9AEAE"/>
        <path d="M226.744 336.092C226.119 337.454 224.741 338.325 223.236 338.314L208.425 338.187C206.318 338.164 204.622 336.45 204.639 334.35L205.126 278.745C205.143 276.644 206.868 274.954 208.975 274.971L223.786 275.098C225.893 275.115 227.589 276.835 227.571 278.935L227.085 334.54C227.085 335.077 226.964 335.602 226.738 336.092H226.744Z" fill="#2F2E41"/>
        <path d="M211.174 212.581C207.169 209.274 201.815 212.402 197.289 211.958C192.954 211.531 189.469 207.734 188.52 203.643C187.409 198.871 189.816 194.025 193.434 190.966C197.399 187.62 202.724 186.576 207.794 187.089C213.611 187.672 218.965 190.268 223.786 193.442C228.44 196.408 232.734 199.893 236.583 203.839C240.033 207.492 242.979 211.871 243.986 216.862C244.901 221.391 244.362 226.446 241.74 230.352C240.345 232.354 238.459 233.964 236.265 235.026C233.973 236.203 231.525 237.057 229.308 238.378C225.957 240.38 222.738 244.454 223.884 248.608C224.128 249.514 224.596 250.351 225.239 251.037C226.014 251.862 227.357 250.726 226.582 249.901C225.221 248.447 225.233 246.479 225.91 244.702C226.721 242.7 228.185 241.026 230.072 239.965C232.393 238.586 234.963 237.709 237.347 236.445C239.628 235.291 241.59 233.601 243.077 231.523C245.879 227.484 246.643 222.28 245.896 217.497C245.092 212.315 242.325 207.647 238.893 203.758C235.159 199.523 230.604 195.969 225.962 192.784C220.979 189.368 215.492 186.501 209.461 185.543C204.234 184.712 198.597 185.393 194.094 188.307C189.892 191.03 186.72 195.634 186.488 200.718C186.344 205.426 188.757 209.846 192.803 212.281C194.84 213.446 197.196 213.942 199.534 213.7C202.035 213.492 204.524 212.679 207.047 212.846C208.187 212.892 209.281 213.308 210.167 214.035C211.041 214.756 212.042 213.308 211.174 212.592V212.581Z" fill="#2F2E41"/>
        <path d="M175.948 368.248C175.96 368.184 175.972 368.115 175.989 368.052C176.197 367.065 176.799 366.2 177.65 365.657L184.937 360.972C186.708 359.835 189.07 360.343 190.216 362.109L212.691 396.85C213.831 398.615 213.321 400.969 211.55 402.112L204.263 406.797C202.492 407.934 200.131 407.426 198.985 405.66L176.51 370.919C175.995 370.129 175.798 369.177 175.948 368.254V368.248Z" fill="#2F2E41"/>
        <path d="M148.658 139.302C147.512 136.596 144.861 134.825 141.915 134.802H7.29863C3.2702 134.802 0.00578797 138.062 0 142.078V311.853C0 315.868 3.2702 319.123 7.29863 319.128H141.921C145.949 319.128 149.214 315.868 149.22 311.853V142.078C149.22 141.126 149.034 140.179 148.664 139.302H148.658ZM147.593 311.853C147.593 314.974 145.052 317.507 141.915 317.513H7.29863C4.16155 317.513 1.62063 314.98 1.62063 311.853V142.078C1.62063 138.956 4.16155 136.423 7.29863 136.417H141.921C144.242 136.429 146.326 137.831 147.188 139.977C147.269 140.185 147.344 140.399 147.402 140.618C147.53 141.097 147.599 141.587 147.599 142.078V311.853H147.593Z" fill="#BDBADE"/>
        <path d="M120.569 174.886H80.0187C78.2244 174.886 76.7716 173.443 76.7716 171.654C76.7716 169.866 78.2186 168.417 80.0129 168.417H120.569C122.363 168.417 123.816 169.86 123.816 171.649C123.816 173.437 122.369 174.886 120.575 174.886H120.569Z" fill="#D1D1DA"/>
        <path d="M120.569 191.867H80.0187C78.2244 191.867 76.7716 190.424 76.7716 188.635C76.7716 186.847 78.2186 185.398 80.0129 185.398H120.569C122.363 185.398 123.816 186.841 123.816 188.63C123.816 190.418 122.369 191.867 120.575 191.867H120.569Z" fill="#D1D1DA"/>
        <path d="M59.2109 201.531H29.5765C27.5623 201.531 25.9301 199.904 25.9243 197.89V163.028C25.9243 161.02 27.5565 159.393 29.5765 159.387H59.2109C61.2251 159.387 62.8574 161.015 62.8631 163.028V197.89C62.8631 199.898 61.2309 201.525 59.2109 201.531Z" fill="#D7DEF0"/>
        <path d="M120.286 226.63H28.6446C26.8504 226.63 25.4034 225.176 25.4034 223.394C25.4034 221.611 26.8562 220.162 28.6446 220.162H120.286C122.08 220.162 123.533 221.605 123.533 223.394C123.533 225.182 122.086 226.63 120.291 226.63H120.286Z" fill="#D1D1DA"/>
        <path d="M120.286 243.606H28.6446C26.8504 243.606 25.4034 242.152 25.4034 240.369C25.4034 238.586 26.8562 237.137 28.6446 237.137H120.286C122.08 237.137 123.533 238.58 123.533 240.369C123.533 242.157 122.086 243.606 120.291 243.606H120.286Z" fill="#D1D1DA"/>
        <path d="M120.286 260.581H28.6446C26.8504 260.581 25.4034 259.127 25.4034 257.344C25.4034 255.561 26.8562 254.113 28.6446 254.113H120.286C122.08 254.113 123.533 255.555 123.533 257.344C123.533 259.132 122.086 260.581 120.291 260.581H120.286Z" fill="#D1D1DA"/>
        <path d="M120.286 277.562H28.6446C26.8504 277.562 25.4034 276.108 25.4034 274.325C25.4034 272.542 26.8562 271.094 28.6446 271.094H120.286C122.08 271.094 123.533 272.536 123.533 274.325C123.533 276.113 122.086 277.562 120.291 277.562H120.286Z" fill="#D1D1DA"/>
        <path d="M120.286 294.537H28.6446C26.8504 294.537 25.4034 293.083 25.4034 291.3C25.4034 289.517 26.8562 288.069 28.6446 288.069H120.286C122.08 288.069 123.533 289.511 123.533 291.3C123.533 293.089 122.086 294.537 120.291 294.537H120.286Z" fill="#D1D1DA"/>
        <path d="M149.665 167.419C166.956 167.419 180.972 153.446 180.972 136.21C180.972 118.973 166.956 105 149.665 105C132.375 105 118.358 118.973 118.358 136.21C118.358 153.446 132.375 167.419 149.665 167.419Z" fill="#D7DEF0"/>
        <path d="M146.563 148.113C145.857 148.113 145.174 147.888 144.607 147.467L144.572 147.438L137.215 141.829C135.78 140.733 135.514 138.691 136.608 137.26C137.702 135.829 139.756 135.563 141.192 136.654L145.955 140.295L157.219 125.651C158.318 124.225 160.367 123.954 161.803 125.045C163.232 126.141 163.504 128.184 162.405 129.615L149.156 146.832C148.537 147.634 147.576 148.107 146.557 148.101L146.563 148.113Z" fill="white"/>
        <path d="M347.741 416H134.744C134.426 416 134.165 415.74 134.165 415.423C134.165 415.106 134.426 414.846 134.744 414.846H347.741C348.06 414.846 348.32 415.106 348.32 415.423C348.32 415.74 348.06 416 347.741 416Z" fill="#E5EBFA"/>
    </g>
    <defs>
        <clipPath id="clip0_1025_11502">
            <rect width="211.187" height="81.9728" fill="white" transform="translate(64 27.7104) rotate(-7.40777)"/>
        </clipPath>
        <clipPath id="clip1_1025_11502">
            <rect width="348.32" height="311" fill="white" transform="translate(0 105)"/>
        </clipPath>
    </defs>
</svg>
