<svg width="190" height="220" viewBox="0 0 190 220" fill="none" xmlns="http://www.w3.org/2000/svg">
<g clip-path="url(#clip0_73_1334)">
<path d="M183.184 81.0862H5.95622C4.37708 81.0843 2.86313 80.4585 1.74651 79.3459C0.629893 78.2333 0.00177762 76.7249 -4.57764e-05 75.1514V5.93471C0.00177762 4.36128 0.629893 2.85282 1.74651 1.74024C2.86313 0.62766 4.37708 0.0018168 5.95622 0H183.184C184.763 0.0018168 186.277 0.62766 187.394 1.74024C188.51 2.85282 189.138 4.36128 189.14 5.93471V75.1515C189.138 76.7249 188.51 78.2333 187.394 79.3459C186.277 80.4585 184.763 81.0843 183.184 81.0862Z" fill="#F1F5FF"/>
<path d="M141.85 77.3011H34.0884C26.0581 77.292 18.3594 74.1096 12.6811 68.4518C7.00283 62.7941 3.8088 55.1232 3.79974 47.122V33.9674C3.8088 25.9662 7.00281 18.2952 12.6811 12.6374C18.3593 6.97968 26.0581 3.79716 34.0884 3.78809H155.053C163.083 3.79716 170.782 6.97968 176.46 12.6374C182.138 18.2952 185.332 25.9662 185.341 33.9674C185.328 45.4562 180.742 56.4708 172.589 64.5946C164.435 72.7184 153.381 77.2881 141.85 77.3011Z" fill="white"/>
<path d="M114.052 23.6026H42.8202C42.4128 23.6026 42.0221 23.4414 41.734 23.1543C41.4459 22.8673 41.2841 22.478 41.2841 22.0721C41.2841 21.6661 41.4459 21.2768 41.734 20.9898C42.0221 20.7028 42.4128 20.5415 42.8202 20.5415H114.052C114.46 20.5415 114.85 20.7028 115.138 20.9898C115.427 21.2768 115.588 21.6661 115.588 22.0721C115.588 22.478 115.427 22.8673 115.138 23.1543C114.85 23.4414 114.46 23.6026 114.052 23.6026Z" fill="#E5EBFA"/>
<path d="M150.111 39.9327H42.8202C42.4128 39.9327 42.0221 39.7715 41.734 39.4844C41.4459 39.1974 41.2841 38.8081 41.2841 38.4021C41.2841 37.9962 41.4459 37.6069 41.734 37.3199C42.0221 37.0328 42.4128 36.8716 42.8202 36.8716H150.111C150.519 36.8716 150.909 37.0328 151.197 37.3199C151.485 37.6069 151.647 37.9962 151.647 38.4021C151.647 38.8081 151.485 39.1974 151.197 39.4844C150.909 39.7715 150.519 39.9327 150.111 39.9327Z" fill="#E5EBFA"/>
<path d="M150.111 56.2628H42.8202C42.4128 56.2628 42.0221 56.1015 41.734 55.8145C41.4459 55.5275 41.2841 55.1382 41.2841 54.7322C41.2841 54.3263 41.4459 53.937 41.734 53.6499C42.0221 53.3629 42.4128 53.2017 42.8202 53.2017H150.111C150.519 53.2017 150.909 53.3629 151.197 53.6499C151.485 53.937 151.647 54.3263 151.647 54.7322C151.647 55.1382 151.485 55.5275 151.197 55.8145C150.909 56.1015 150.519 56.2628 150.111 56.2628Z" fill="#E5EBFA"/>
<path d="M150.111 56.2628H42.8202C42.4128 56.2628 42.0221 56.1015 41.734 55.8145C41.4459 55.5275 41.2841 55.1382 41.2841 54.7322C41.2841 54.3263 41.4459 53.937 41.734 53.6499C42.0221 53.3629 42.4128 53.2017 42.8202 53.2017H150.111C150.519 53.2017 150.909 53.3629 151.197 53.6499C151.485 53.937 151.647 54.3263 151.647 54.7322C151.647 55.1382 151.485 55.5275 151.197 55.8145C150.909 56.1015 150.519 56.2628 150.111 56.2628Z" fill="#E5EBFA"/>
<path d="M106.535 41.8069C106.552 42.268 106.671 42.7197 106.882 43.1302C107.093 43.5407 107.392 43.9002 107.758 44.1831C108.124 44.466 108.547 44.6656 108.999 44.7679C109.45 44.8701 109.919 44.8724 110.371 44.7747L116.229 54.3503L118.723 49.0787L112.777 40.7937C112.562 40.0472 112.08 39.4052 111.421 38.9894C110.763 38.5736 109.974 38.413 109.205 38.5379C108.435 38.6628 107.739 39.0645 107.247 39.667C106.755 40.2695 106.502 41.0309 106.535 41.8069Z" fill="#FFB6B6"/>
<path d="M150.497 69.2501L130.309 58.3392L123.941 52.3864C123.941 52.3864 121.173 51.6479 122.192 50.7511C123.21 49.8542 120.307 48.9893 120.307 48.9893L116.888 45.7937L112.031 49.2183L113.437 51.3896C113.437 51.3896 113.34 54.9841 115.316 54.2925C117.293 53.601 116.799 56.5822 116.799 56.5822L128.595 74.8014L150.497 69.2501Z" fill="#3F3D56"/>
<path d="M90.9033 58.9703C101.794 58.9703 110.623 50.1737 110.623 39.3224C110.623 28.4712 101.794 19.6746 90.9033 19.6746C80.0127 19.6746 71.1841 28.4712 71.1841 39.3224C71.1841 50.1737 80.0127 58.9703 90.9033 58.9703Z" fill="#2EBA0B"/>
<path d="M150.56 212.361H146.459L144.508 196.604H150.56V212.361Z" fill="#FFB6B6"/>
<path d="M152.724 219.439H149.783L149.259 216.673L147.914 219.439H140.116C139.742 219.439 139.378 219.32 139.077 219.1C138.776 218.879 138.553 218.568 138.442 218.212C138.331 217.857 138.337 217.475 138.458 217.123C138.58 216.771 138.812 216.467 139.12 216.255L145.347 211.97V209.173L151.898 209.563L152.724 219.439Z" fill="#2F2E41"/>
<path d="M117.767 212.361H113.667L111.715 196.604H117.767V212.361Z" fill="#FFB6B6"/>
<path d="M119.931 219.439H116.991L116.466 216.673L115.121 219.439H107.323C106.949 219.439 106.585 219.32 106.284 219.1C105.983 218.879 105.76 218.568 105.649 218.212C105.538 217.857 105.544 217.475 105.666 217.123C105.787 216.771 106.019 216.467 106.327 216.255L112.554 211.97V209.173L119.105 209.563L119.931 219.439Z" fill="#2F2E41"/>
<path d="M146.209 93.1877H125.515V116.662H146.209V93.1877Z" fill="#FFB6B6"/>
<path d="M125.992 104.767L122.49 108.891L116.441 121.58L101.198 157.715L97.9749 165.357L100.578 178.866C100.578 178.866 101 188.384 101 189.942C101 193.114 103.662 194.872 103.662 194.872L105.616 205.01L124.559 204.217C124.559 204.217 123.898 193.042 119.931 190.223C115.963 187.404 114.139 172.713 114.139 172.713L111.984 166.195L132.996 141.376L133.132 150.052L133.198 154.251C133.198 154.251 130.121 181.562 133.708 186.862C137.295 192.162 133.781 191.539 133.781 191.539L133.952 202.472L156.397 202.631L151.445 171.153C151.445 171.153 148.931 169.175 150.276 167.187C151.622 165.198 148.972 162.763 148.972 162.763L150.161 138.189C150.161 138.189 148.845 133.945 150.392 133.393C151.94 132.841 150.596 129.191 150.596 129.191L150.826 124.435L146.209 109.684L125.992 104.767Z" fill="#2F2E41"/>
<path d="M146.528 93.1876L148.756 86.5259L150.348 84.3053L150.985 77.9608C150.985 60.8306 147.15 63.6831 147.15 63.6831L144.936 57.6583L134.748 57.3411L128.221 63.527L122.808 65.4303L120.689 76.4033L124.559 88.112L125.515 94.4565C123.693 97.8079 123.847 96.2227 125.355 98.7391L143.344 103.656C149.711 105.877 149.711 100.167 148.434 98.7391C147.158 97.3116 146.528 93.1876 146.528 93.1876Z" fill="#3F3D56"/>
<path d="M138.525 55.2117C143.742 55.2117 147.97 50.9985 147.97 45.8012C147.97 40.6039 143.742 36.3906 138.525 36.3906C133.309 36.3906 129.081 40.6039 129.081 45.8012C129.081 50.9985 133.309 55.2117 138.525 55.2117Z" fill="#FFB6B6"/>
<path d="M151.134 58.3626C151.223 58.5122 151.277 58.6799 151.292 58.8532C151.307 59.0265 151.283 59.2008 151.221 59.3633C151.158 59.5259 151.06 59.6723 150.934 59.7918C150.807 59.9113 150.654 60.0007 150.488 60.0534C149.221 60.4722 148.441 61.6935 147.53 62.6706C146.623 63.6445 145.162 64.4534 144.003 63.7904C142.847 63.1305 142.768 61.4461 141.8 60.5325C140.857 59.6442 139.291 59.7521 138.183 60.4278L138.15 60.4481C137.958 60.5723 137.735 60.638 137.507 60.6369C137.278 60.6359 137.055 60.5682 136.865 60.4423C136.675 60.3163 136.526 60.1376 136.437 59.9282C136.348 59.7188 136.322 59.488 136.363 59.2642C136.751 57.2071 137.139 55.1502 137.527 53.0935C136.508 55.5394 135.028 57.7684 133.168 59.6601C132.656 60.2492 132.007 60.7045 131.277 60.9861C130.615 61.1955 129.972 60.5134 129.329 60.6371C130.927 59.2445 136.301 50.3178 135.34 44.3507C134.209 44.4776 133.079 44.6045 131.949 44.7314C131.827 44.1985 131.565 43.7071 131.191 43.3071C131.237 43.8258 131.171 44.3482 130.997 44.8393C130.526 44.8932 130.051 44.944 129.58 44.9979C128.924 45.0709 128.211 45.1343 127.648 44.7917C126.708 44.2207 126.68 42.8693 126.947 41.8034C127.73 38.7041 130.106 36.1124 133.012 34.7547C135.919 33.4001 136.779 36.4169 139.842 35.4526C145.891 33.5492 150.526 36.804 152.16 42.8439C153.532 47.91 152.535 53.287 151.134 58.3626Z" fill="#2F2E41"/>
<path d="M177.282 219.644H165.717L165.667 219.554C165.519 219.287 165.377 219.004 165.243 218.713C164.052 216.172 163.548 213.266 163.104 210.701L162.77 208.769C162.729 208.535 162.76 208.294 162.857 208.077C162.955 207.86 163.115 207.678 163.318 207.552C163.52 207.427 163.756 207.365 163.994 207.373C164.232 207.382 164.462 207.461 164.655 207.601C166.413 208.876 168.171 210.149 169.93 211.42C170.596 211.903 171.356 212.462 172.085 213.066C172.155 212.726 172.229 212.385 172.302 212.048C172.353 211.816 172.472 211.604 172.644 211.44C172.816 211.275 173.034 211.166 173.269 211.125C173.504 211.085 173.746 211.115 173.963 211.212C174.181 211.31 174.365 211.469 174.491 211.671L175.844 213.837C176.831 215.419 177.702 216.978 177.524 218.659C177.525 218.68 177.524 218.7 177.52 218.72C177.484 218.996 177.418 219.268 177.323 219.53L177.282 219.644Z" fill="#E5EBFA"/>
<path d="M188.89 219.893L78.993 220C78.8834 219.999 78.7784 219.956 78.701 219.878C78.6236 219.801 78.5802 219.696 78.5802 219.587C78.5802 219.477 78.6236 219.372 78.701 219.295C78.7784 219.217 78.8834 219.174 78.993 219.173L188.89 219.066C188.999 219.067 189.104 219.111 189.182 219.188C189.259 219.266 189.302 219.371 189.302 219.48C189.302 219.589 189.259 219.694 189.182 219.771C189.104 219.849 188.999 219.893 188.89 219.893Z" fill="#E5EBFA"/>
<path d="M89.1108 65.767L77.0226 55.5956C76.6094 55.2471 76.3518 54.7496 76.3064 54.2121C76.2609 53.6747 76.4312 53.1412 76.78 52.7287L79.0049 50.1037C79.3546 49.692 79.854 49.4353 80.3934 49.39C80.9328 49.3447 81.4682 49.5144 81.8821 49.862L93.9703 60.0334C94.3835 60.3819 94.6411 60.8794 94.6866 61.4169C94.732 61.9543 94.5617 62.4878 94.2129 62.9003L91.988 65.5253C91.6383 65.937 91.139 66.1937 90.5996 66.239C90.0602 66.2843 89.5247 66.1145 89.1108 65.767Z" fill="#3F3D56"/>
<path d="M77.6569 52.9404C77.469 53.1627 77.3772 53.4502 77.4017 53.7398C77.4262 54.0294 77.565 54.2976 77.7877 54.4853L89.8758 64.6568C90.0989 64.8441 90.3874 64.9355 90.6781 64.9111C90.9688 64.8867 91.2379 64.7484 91.4263 64.5265L93.6512 61.9015C93.8391 61.6793 93.9309 61.3918 93.9064 61.1022C93.8819 60.8125 93.7431 60.5444 93.5204 60.3566L81.4323 50.1852C81.2092 49.9979 80.9207 49.9065 80.63 49.9309C80.3394 49.9553 80.0702 50.0936 79.8818 50.3154L77.6569 52.9404Z" fill="white"/>
<path d="M84.7534 56.8943C84.7115 56.9528 84.6565 57.0008 84.5927 57.0344C84.5289 57.068 84.4581 57.0863 84.386 57.088L82.4867 57.1314C82.4257 57.1328 82.365 57.1222 82.3081 57.1002C82.2512 57.0783 82.1992 57.0453 82.155 57.0033C82.1109 56.9613 82.0755 56.9111 82.0508 56.8554C82.0262 56.7998 82.0128 56.7399 82.0114 56.6791C82.01 56.6183 82.0206 56.5578 82.0427 56.5011C82.0647 56.4444 82.0978 56.3926 82.1399 56.3486C82.1821 56.3046 82.2325 56.2694 82.2884 56.2448C82.3442 56.2203 82.4043 56.2069 82.4654 56.2055L83.7079 56.177L82.4842 52.9599C82.4409 52.8451 82.445 52.7179 82.4957 52.6062C82.5464 52.4944 82.6394 52.4073 82.7545 52.3638C82.8696 52.3203 82.9973 52.3241 83.1096 52.3744C83.2219 52.4246 83.3096 52.5171 83.3535 52.6317L84.81 56.4609C84.8363 56.5302 84.8456 56.6047 84.837 56.6783C84.8285 56.7519 84.8024 56.8223 84.7608 56.8838L84.7534 56.8943Z" fill="#BCCAEE"/>
<path d="M84.9971 57.703C85.4552 57.77 85.893 57.9363 86.2796 58.1902C86.6662 58.444 86.9923 58.7793 87.2348 59.1723C87.4773 59.5653 87.6304 60.0065 87.6833 60.4648C87.7362 60.9231 87.6875 61.3874 87.5408 61.825L96.4573 68.6686L90.9268 70.5649L83.3075 63.7754C82.5861 63.4811 81.998 62.9334 81.6548 62.236C81.3116 61.5386 81.2371 60.74 81.4453 59.9915C81.6536 59.243 82.1302 58.5966 82.7848 58.1748C83.4394 57.753 84.2265 57.5851 84.9971 57.703Z" fill="#FFB6B6"/>
<path d="M131.418 61.0867L108.589 75.072C108.589 75.072 99.3847 71.6787 101.184 70.1078C102.982 68.5369 97.2559 67.475 97.2559 67.475L90.9298 63.2343L87.2589 67.4851C87.2589 67.4851 87.9277 74.3897 89.0658 73.1942C90.2039 71.9986 91.905 75.2645 91.905 75.2645C91.905 75.2645 92.4077 78.9112 95.6474 77.9935C98.8871 77.0758 107.58 86.695 107.58 86.695L135.676 76.2544L131.418 61.0867Z" fill="#3F3D56"/>
<path d="M90.2099 47.2039C89.9452 47.2039 89.6842 47.1425 89.4475 47.0246C89.2108 46.9066 89.0049 46.7354 88.8462 46.5244L84.6651 40.9697C84.5308 40.7912 84.4331 40.5882 84.3775 40.3721C84.322 40.156 84.3097 39.9312 84.3414 39.7103C84.373 39.4895 84.448 39.2771 84.5621 39.0851C84.6762 38.8932 84.827 38.7255 85.0061 38.5917C85.3678 38.3214 85.8225 38.2054 86.2701 38.2691C86.4917 38.3007 86.7049 38.3754 86.8975 38.4891C87.0902 38.6027 87.2584 38.7531 87.3927 38.9315L90.1282 42.5652L97.1537 32.0652C97.4045 31.6904 97.7944 31.4302 98.2378 31.3418C98.6812 31.2535 99.1416 31.3442 99.5178 31.5941C99.894 31.844 100.155 32.2326 100.244 32.6743C100.332 33.1161 100.241 33.5749 99.9906 33.9497L91.6285 46.4475C91.4772 46.6735 91.2738 46.8601 91.0352 46.9917C90.7966 47.1232 90.5299 47.1958 90.2573 47.2034C90.2415 47.2037 90.2257 47.2039 90.2099 47.2039Z" fill="white"/>
</g>
<defs>
<clipPath id="clip0_73_1334">
<rect width="189.302" height="220" fill="white"/>
</clipPath>
</defs>
</svg>
