<svg width="16" height="16" viewBox="0 0 16 16" fill="none" xmlns="http://www.w3.org/2000/svg">
<g clip-path="url(#clip0_852_4276)">
<path d="M4.6665 7.66663C4.27254 7.66663 3.88243 7.58903 3.51845 7.43826C3.15448 7.2875 2.82376 7.06652 2.54518 6.78795C2.26661 6.50937 2.04563 6.17865 1.89487 5.81468C1.7441 5.4507 1.6665 5.06059 1.6665 4.66663C1.6665 4.27266 1.7441 3.88255 1.89487 3.51858C2.04563 3.1546 2.26661 2.82388 2.54518 2.54531C2.82376 2.26673 3.15448 2.04575 3.51845 1.89499C3.88243 1.74422 4.27254 1.66663 4.6665 1.66663C5.46215 1.66663 6.22521 1.9827 6.78782 2.54531C7.35043 3.10791 7.6665 3.87098 7.6665 4.66663C7.6665 5.46228 7.35043 6.22534 6.78782 6.78795C6.22521 7.35055 5.46215 7.66663 4.6665 7.66663V7.66663ZM4.6665 14.3333C3.87085 14.3333 3.10779 14.0172 2.54518 13.4546C1.98257 12.892 1.6665 12.1289 1.6665 11.3333C1.6665 10.5376 1.98257 9.77458 2.54518 9.21197C3.10779 8.64936 3.87085 8.33329 4.6665 8.33329C5.46215 8.33329 6.22521 8.64936 6.78782 9.21197C7.35043 9.77458 7.6665 10.5376 7.6665 11.3333C7.6665 12.1289 7.35043 12.892 6.78782 13.4546C6.22521 14.0172 5.46215 14.3333 4.6665 14.3333V14.3333ZM11.3332 7.66663C10.9392 7.66663 10.5491 7.58903 10.1851 7.43826C9.82114 7.2875 9.49043 7.06652 9.21185 6.78795C8.93327 6.50937 8.7123 6.17865 8.56153 5.81468C8.41077 5.4507 8.33317 5.06059 8.33317 4.66663C8.33317 4.27266 8.41077 3.88255 8.56153 3.51858C8.7123 3.1546 8.93327 2.82388 9.21185 2.54531C9.49043 2.26673 9.82114 2.04575 10.1851 1.89499C10.5491 1.74422 10.9392 1.66663 11.3332 1.66663C12.1288 1.66663 12.8919 1.9827 13.4545 2.54531C14.0171 3.10791 14.3332 3.87098 14.3332 4.66663C14.3332 5.46228 14.0171 6.22534 13.4545 6.78795C12.8919 7.35055 12.1288 7.66663 11.3332 7.66663V7.66663ZM11.3332 14.3333C10.5375 14.3333 9.77446 14.0172 9.21185 13.4546C8.64924 12.892 8.33317 12.1289 8.33317 11.3333C8.33317 10.5376 8.64924 9.77458 9.21185 9.21197C9.77446 8.64936 10.5375 8.33329 11.3332 8.33329C12.1288 8.33329 12.8919 8.64936 13.4545 9.21197C14.0171 9.77458 14.3332 10.5376 14.3332 11.3333C14.3332 12.1289 14.0171 12.892 13.4545 13.4546C12.8919 14.0172 12.1288 14.3333 11.3332 14.3333Z" fill="#A9C4D8"/>
</g>
<defs>
<clipPath id="clip0_852_4276">
<rect width="16" height="16" fill="white"/>
</clipPath>
</defs>
</svg>
