<svg width="13" height="14" viewBox="0 0 13 14" fill="none" xmlns="http://www.w3.org/2000/svg">
<path d="M8.88533 4.17142L5.11466 7.94275C5.05099 8.00425 5.0002 8.07782 4.96526 8.15915C4.93032 8.24049 4.91193 8.32797 4.91116 8.41649C4.9104 8.50501 4.92726 8.59279 4.96078 8.67472C4.9943 8.75666 5.04381 8.83109 5.1064 8.89368C5.169 8.95628 5.24343 9.00578 5.32536 9.0393C5.40729 9.07282 5.49508 9.08969 5.5836 9.08892C5.67212 9.08815 5.7596 9.06976 5.84093 9.03482C5.92227 8.99988 5.99583 8.94909 6.05733 8.88542L9.82867 5.11475C10.2038 4.73965 10.4145 4.2309 10.4145 3.70042C10.4145 3.16994 10.2038 2.66119 9.82867 2.28609C9.45356 1.91098 8.94481 1.70025 8.41433 1.70025C7.88385 1.70025 7.3751 1.91098 7 2.28609L3.22866 6.05742C2.91272 6.36551 2.66108 6.73326 2.48837 7.13935C2.31566 7.54544 2.22529 7.98179 2.22253 8.42307C2.21976 8.86436 2.30465 9.3018 2.47226 9.71003C2.63988 10.1182 2.88688 10.4891 3.19894 10.8011C3.51101 11.1132 3.88192 11.3601 4.29017 11.5277C4.69842 11.6952 5.13587 11.7801 5.57715 11.7772C6.01844 11.7744 6.45477 11.684 6.86084 11.5112C7.26691 11.3384 7.63462 11.0867 7.94266 10.7708L11.714 7.00009L12.6567 7.94275L8.88533 11.7141C8.45197 12.1474 7.93749 12.4912 7.37128 12.7257C6.80506 12.9603 6.1982 13.081 5.58533 13.081C4.97247 13.081 4.3656 12.9603 3.79938 12.7257C3.23317 12.4912 2.71869 12.1474 2.28533 11.7141C1.85197 11.2807 1.50821 10.7663 1.27367 10.2C1.03914 9.63382 0.918427 9.02695 0.918427 8.41409C0.918427 7.80122 1.03914 7.19436 1.27367 6.62814C1.50821 6.06193 1.85197 5.54745 2.28533 5.11409L6.05733 1.34342C6.68601 0.736228 7.52801 0.400246 8.402 0.407841C9.27599 0.415436 10.112 0.765999 10.7301 1.38403C11.3481 2.00205 11.6986 2.83809 11.7062 3.71208C11.7138 4.58607 11.3779 5.42808 10.7707 6.05675L7 9.82942C6.81422 10.0152 6.59368 10.1625 6.35097 10.263C6.10826 10.3635 5.84813 10.4152 5.58543 10.4152C5.32273 10.4151 5.06261 10.3634 4.81993 10.2628C4.57724 10.1622 4.35673 10.0149 4.171 9.82909C3.98526 9.64331 3.83794 9.42277 3.73744 9.18006C3.63694 8.93735 3.58523 8.67722 3.58526 8.41452C3.58529 8.15182 3.63706 7.8917 3.73762 7.64902C3.83818 7.40633 3.98555 7.18582 4.17133 7.00009L7.94266 3.22875L8.88533 4.17142Z" fill="#A9C4D8"/>
</svg>
