<svg width="18" height="16" viewBox="0 0 18 16" fill="none" xmlns="http://www.w3.org/2000/svg">
<path d="M6.50008 0.5H11.5001L13.1667 2.16667H16.5001C16.7211 2.16667 16.9331 2.25446 17.0893 2.41074C17.2456 2.56702 17.3334 2.77899 17.3334 3V14.6667C17.3334 14.8877 17.2456 15.0996 17.0893 15.2559C16.9331 15.4122 16.7211 15.5 16.5001 15.5H1.50008C1.27907 15.5 1.06711 15.4122 0.910826 15.2559C0.754545 15.0996 0.666748 14.8877 0.666748 14.6667V3C0.666748 2.77899 0.754545 2.56702 0.910826 2.41074C1.06711 2.25446 1.27907 2.16667 1.50008 2.16667H4.83341L6.50008 0.5ZM9.00008 13.8333C10.3262 13.8333 11.5979 13.3065 12.5356 12.3689C13.4733 11.4312 14.0001 10.1594 14.0001 8.83333C14.0001 7.50725 13.4733 6.23548 12.5356 5.2978C11.5979 4.36012 10.3262 3.83333 9.00008 3.83333C7.674 3.83333 6.40223 4.36012 5.46455 5.2978C4.52687 6.23548 4.00008 7.50725 4.00008 8.83333C4.00008 10.1594 4.52687 11.4312 5.46455 12.3689C6.40223 13.3065 7.674 13.8333 9.00008 13.8333V13.8333ZM9.00008 12.1667C8.11603 12.1667 7.26818 11.8155 6.64306 11.1904C6.01794 10.5652 5.66675 9.71739 5.66675 8.83333C5.66675 7.94928 6.01794 7.10143 6.64306 6.47631C7.26818 5.85119 8.11603 5.5 9.00008 5.5C9.88414 5.5 10.732 5.85119 11.3571 6.47631C11.9822 7.10143 12.3334 7.94928 12.3334 8.83333C12.3334 9.71739 11.9822 10.5652 11.3571 11.1904C10.732 11.8155 9.88414 12.1667 9.00008 12.1667Z" fill="#38AB10"/>
</svg>
