<svg width="24" height="24" viewBox="0 0 24 24" fill="none" xmlns="http://www.w3.org/2000/svg">
    <path d="M12 24C18.6274 24 24 18.6274 24 12C24 5.37258 18.6274 0 12 0C5.37258 0 0 5.37258 0 12C0 18.6274 5.37258 24 12 24Z" fill="#2EBA0B"/>
    <path d="M10.8109 16.5768C10.5403 16.5768 10.2785 16.4903 10.0611 16.3284L10.0478 16.3173L7.22802 14.1609C6.67783 13.7393 6.57577 12.954 6.99508 12.4038C7.41438 11.8536 8.20195 11.7515 8.75215 12.1708L10.578 13.5707L14.8952 7.94012C15.3168 7.39215 16.1021 7.28788 16.6523 7.70718C17.2003 8.1287 17.3046 8.91405 16.883 9.46425L11.8048 16.0843C11.5675 16.3927 11.1992 16.5746 10.8087 16.5724L10.8109 16.5768Z" fill="white"/>
</svg>
