<svg width="24" height="24" viewBox="0 0 24 24" fill="none" xmlns="http://www.w3.org/2000/svg">
<g clip-path="url(#clip0_529_8384)">
<path d="M4.51966 5.93394L1.39266 2.80794L2.80766 1.39294L22.6067 21.1929L21.1917 22.6069L17.8817 19.2969C16.1229 20.4125 14.0824 21.0033 11.9997 20.9999C6.60766 20.9999 2.12166 17.1199 1.18066 11.9999C1.61069 9.67066 2.78229 7.54284 4.52066 5.93394H4.51966ZM14.7567 16.1719L13.2927 14.7079C12.7327 14.9759 12.1034 15.0635 11.4916 14.9587C10.8798 14.854 10.3155 14.562 9.87653 14.1231C9.4376 13.6841 9.14563 13.1199 9.04088 12.508C8.93613 11.8962 9.02375 11.2669 9.29166 10.7069L7.82766 9.24294C7.19138 10.2044 6.90693 11.3563 7.02249 12.5034C7.13805 13.6506 7.64652 14.7226 8.46178 15.5378C9.27705 16.3531 10.349 16.8616 11.4962 16.9771C12.6433 17.0927 13.7952 16.8082 14.7567 16.1719ZM7.97366 3.75994C9.22066 3.26994 10.5797 2.99994 11.9997 2.99994C17.3917 2.99994 21.8777 6.87994 22.8187 11.9999C22.5122 13.6656 21.8235 15.2375 20.8067 16.5919L16.9467 12.7319C17.0613 11.9596 16.9935 11.1711 16.7486 10.4296C16.5037 9.68815 16.0885 9.01436 15.5364 8.46221C14.9843 7.91007 14.3105 7.49492 13.569 7.25002C12.8276 7.00512 12.0391 6.93728 11.2667 7.05194L7.97366 3.76094V3.75994Z" fill="#A9C4D8"/>
</g>
<defs>
<clipPath id="clip0_529_8384">
<rect width="24" height="24" fill="white"/>
</clipPath>
</defs>
</svg>
