<svg width="32" height="32" viewBox="0 0 32 32" fill="none" xmlns="http://www.w3.org/2000/svg">
<g filter="url(#filter0_b_831_393)">
<rect x="6.19473" y="6.23628" width="17.3571" height="18.8036" rx="5.96652" fill="url(#paint0_linear_831_393)"/>
</g>
<g filter="url(#filter1_b_831_393)">
<rect x="6.19473" y="10.5756" width="20.25" height="15.9107" rx="5.96652" fill="#B9DDFF" fill-opacity="0.6"/>
<rect x="6.28794" y="10.6688" width="20.0636" height="15.7243" rx="5.87331" stroke="url(#paint1_linear_831_393)" stroke-width="0.186411"/>
</g>
<g filter="url(#filter2_b_831_393)">
<rect x="19.2126" y="14.9149" width="8.67857" height="5.78572" rx="2.48605" fill="url(#paint2_linear_831_393)"/>
</g>
<g filter="url(#filter3_b_831_393)">
<rect x="23.5519" y="16.3613" width="2.89286" height="2.89286" rx="1.44643" transform="rotate(90 23.5519 16.3613)" fill="white"/>
</g>
<defs>
<filter id="filter0_b_831_393" x="2.21705" y="2.2586" width="25.3125" height="26.7589" filterUnits="userSpaceOnUse" color-interpolation-filters="sRGB">
<feFlood flood-opacity="0" result="BackgroundImageFix"/>
<feGaussianBlur in="BackgroundImageFix" stdDeviation="1.98884"/>
<feComposite in2="SourceAlpha" operator="in" result="effect1_backgroundBlur_831_393"/>
<feBlend mode="normal" in="SourceGraphic" in2="effect1_backgroundBlur_831_393" result="shape"/>
</filter>
<filter id="filter1_b_831_393" x="2.21705" y="6.5979" width="28.2054" height="23.8661" filterUnits="userSpaceOnUse" color-interpolation-filters="sRGB">
<feFlood flood-opacity="0" result="BackgroundImageFix"/>
<feGaussianBlur in="BackgroundImageFix" stdDeviation="1.98884"/>
<feComposite in2="SourceAlpha" operator="in" result="effect1_backgroundBlur_831_393"/>
<feBlend mode="normal" in="SourceGraphic" in2="effect1_backgroundBlur_831_393" result="shape"/>
</filter>
<filter id="filter2_b_831_393" x="17.5552" y="13.2575" width="11.9933" height="9.10045" filterUnits="userSpaceOnUse" color-interpolation-filters="sRGB">
<feFlood flood-opacity="0" result="BackgroundImageFix"/>
<feGaussianBlur in="BackgroundImageFix" stdDeviation="0.828683"/>
<feComposite in2="SourceAlpha" operator="in" result="effect1_backgroundBlur_831_393"/>
<feBlend mode="normal" in="SourceGraphic" in2="effect1_backgroundBlur_831_393" result="shape"/>
</filter>
<filter id="filter3_b_831_393" x="16.6814" y="12.3836" width="10.8482" height="10.8482" filterUnits="userSpaceOnUse" color-interpolation-filters="sRGB">
<feFlood flood-opacity="0" result="BackgroundImageFix"/>
<feGaussianBlur in="BackgroundImageFix" stdDeviation="1.98884"/>
<feComposite in2="SourceAlpha" operator="in" result="effect1_backgroundBlur_831_393"/>
<feBlend mode="normal" in="SourceGraphic" in2="effect1_backgroundBlur_831_393" result="shape"/>
</filter>
<linearGradient id="paint0_linear_831_393" x1="11.2016" y1="10.3496" x2="24.7312" y2="14.6444" gradientUnits="userSpaceOnUse">
<stop stop-color="#7FC0FB"/>
<stop offset="1" stop-color="#4088F4"/>
</linearGradient>
<linearGradient id="paint1_linear_831_393" x1="4.7483" y1="12.022" x2="30.0608" y2="28.6559" gradientUnits="userSpaceOnUse">
<stop stop-color="white"/>
<stop offset="1" stop-color="white" stop-opacity="0"/>
</linearGradient>
<linearGradient id="paint2_linear_831_393" x1="21.716" y1="16.1805" x2="27.5975" y2="19.2144" gradientUnits="userSpaceOnUse">
<stop stop-color="#7FC0FB"/>
<stop offset="1" stop-color="#4088F4"/>
</linearGradient>
</defs>
</svg>
