<svg width="20" height="20" viewBox="0 0 20 20" fill="none" xmlns="http://www.w3.org/2000/svg">
<g clip-path="url(#clip0_852_6114)">
<path d="M2.7998 4.80005C2.7998 3.69548 3.69524 2.80005 4.7998 2.80005H9.1998V9.20005H2.7998V4.80005Z" fill="#A9C4D8"/>
<path d="M10.7998 2.80005H15.1998C16.3044 2.80005 17.1998 3.69548 17.1998 4.80005V9.20005H10.7998V2.80005Z" fill="#A9C4D8"/>
<rect x="2.7998" y="10.8" width="6.4" height="6.4" rx="3.2" fill="#A9C4D8"/>
<path d="M10.7998 10.8H17.1998V15.2C17.1998 16.3046 16.3044 17.2 15.1998 17.2H10.7998V10.8Z" fill="#A9C4D8"/>
</g>
<defs>
<clipPath id="clip0_852_6114">
<rect width="19.2" height="19.2" fill="white" transform="translate(0.399902 0.400024)"/>
</clipPath>
</defs>
</svg>
