<svg width="18" height="18" viewBox="0 0 18 18" fill="none" xmlns="http://www.w3.org/2000/svg">
<path d="M13.5076 15.8333C12.8609 13.8341 11.6101 12.5958 9.95258 11.1649C11.5746 9.86825 13.5902 9.16336 15.6667 9.16659V2.49992H16.5067C16.9634 2.49992 17.3334 2.87075 17.3334 3.32742V16.6724C17.3319 16.8913 17.2443 17.1007 17.0897 17.2556C16.935 17.4104 16.7256 17.4982 16.5067 17.4999H1.49341C1.27409 17.4997 1.06383 17.4124 0.908823 17.2573C0.753816 17.1021 0.666748 16.8917 0.666748 16.6724V3.32742C0.668273 3.10857 0.755832 2.8991 0.910509 2.74427C1.06519 2.58943 1.27456 2.50166 1.49341 2.49992H4.00008V0.833252H5.66675V4.16659H2.33341V9.99992C6.68341 9.99992 10.3851 12.0516 11.7609 15.8333H13.5076ZM14.0001 0.833252V4.16659H7.33342V2.49992H12.3334V0.833252H14.0001ZM12.7501 8.33325C12.4186 8.33325 12.1006 8.20156 11.8662 7.96714C11.6318 7.73271 11.5001 7.41477 11.5001 7.08325C11.5001 6.75173 11.6318 6.43379 11.8662 6.19937C12.1006 5.96495 12.4186 5.83325 12.7501 5.83325C13.0816 5.83325 13.3995 5.96495 13.634 6.19937C13.8684 6.43379 14.0001 6.75173 14.0001 7.08325C14.0001 7.41477 13.8684 7.73271 13.634 7.96714C13.3995 8.20156 13.0816 8.33325 12.7501 8.33325Z" fill="#38AB10"/>
</svg>
