<svg width="24" height="25" viewBox="0 0 24 25" fill="none" xmlns="http://www.w3.org/2000/svg">
<g clip-path="url(#clip0_863_9042)">
<path d="M2.0498 13.0197H7.5268C7.69792 16.189 8.70735 19.256 10.4518 21.9067C8.26674 21.5632 6.257 20.5047 4.73682 18.8968C3.21664 17.2889 2.27172 15.2221 2.0498 13.0197V13.0197ZM2.0498 11.0181C2.27172 8.81567 3.21664 6.74892 4.73682 5.14099C6.257 3.53306 8.26674 2.4746 10.4518 2.1311C8.70735 4.7818 7.69792 7.84875 7.5268 11.0181H2.0498ZM21.9498 11.0181H16.4728C16.3017 7.84875 15.2923 4.7818 13.5478 2.1311C15.7329 2.4746 17.7426 3.53306 19.2628 5.14099C20.783 6.74892 21.7279 8.81567 21.9498 11.0181V11.0181ZM21.9498 13.0197C21.7279 15.2221 20.783 17.2889 19.2628 18.8968C17.7426 20.5047 15.7329 21.5632 13.5478 21.9067C15.2923 19.256 16.3017 16.189 16.4728 13.0197H21.9508H21.9498ZM9.5298 13.0197H14.4698C14.3052 15.7213 13.4551 18.3363 11.9998 20.6177C10.5445 18.3363 9.6944 15.7213 9.5298 13.0197V13.0197ZM9.5298 11.0181C9.6944 8.31649 10.5445 5.70148 11.9998 3.42012C13.4551 5.70148 14.3052 8.31649 14.4698 11.0181H9.5298Z" fill="#2EBA0B"/>
</g>
<defs>
<clipPath id="clip0_863_9042">
<rect width="24" height="24.0189" fill="white" transform="translate(0 0.00946045)"/>
</clipPath>
</defs>
</svg>
