<svg width="22" height="22" viewBox="0 0 22 22" fill="none" xmlns="http://www.w3.org/2000/svg">
<circle cx="11" cy="11" r="10" fill="#6E8A9E" stroke="white"/>
<path d="M15.5 15L6.5 15L6.5 14L15.5 14L15.5 15ZM15.5 11.5L9.5 11.5L9.5 10.5L15.5 10.5L15.5 11.5ZM15.5 8L6.5 8L6.5 7L15.5 7L15.5 8Z" fill="white"/>
</svg>
