<svg width="196" height="182" viewBox="0 0 196 182" fill="none" xmlns="http://www.w3.org/2000/svg">
<g clip-path="url(#clip0_778_10511)">
<path d="M131.571 129.022H61.5512C55.6657 129.022 50.8776 124.234 50.8776 118.348V48.3289C50.8776 42.4434 55.6657 37.6553 61.5512 37.6553H131.571C137.456 37.6553 142.244 42.4434 142.244 48.3289V118.348C142.244 124.234 137.456 129.022 131.571 129.022ZM61.5512 39.3631C56.5995 39.3631 52.5854 43.3772 52.5854 48.3289V118.348C52.5854 123.3 56.5995 127.314 61.5512 127.314H110.598C127.133 127.314 140.536 113.91 140.536 97.3757V48.3289C140.536 43.3772 136.522 39.3631 131.571 39.3631L61.5512 39.3631Z" fill="#F2F2F2"/>
<path d="M69.1 46.6445C65.786 46.6445 63.0901 49.3405 63.0901 52.6544V62.0612C63.0901 65.3751 65.786 68.071 69.1 68.071H78.5068C81.8207 68.071 84.5166 65.3751 84.5166 62.0612V52.6544C84.5166 49.3405 81.8207 46.6445 78.5068 46.6445H69.1Z" fill="#F2F2F2"/>
<path d="M69.1 73.126C65.786 73.126 63.0901 75.8219 63.0901 79.1359V88.5426C63.0901 91.8566 65.786 94.5525 69.1 94.5525H78.5068C81.8207 94.5525 84.5166 91.8566 84.5166 88.5426V79.1359C84.5166 75.8219 81.8207 73.126 78.5068 73.126H69.1Z" fill="#F2F2F2"/>
<path d="M69.1 99.6069C65.786 99.6069 63.0901 102.303 63.0901 105.617V115.024C63.0901 118.338 65.786 121.033 69.1 121.033H78.5068C81.8207 121.033 84.5166 118.338 84.5166 115.024V105.617C84.5166 102.303 81.8207 99.6069 78.5068 99.6069H69.1Z" fill="#F2F2F2"/>
<path d="M75.338 23.6938C71.1623 23.6938 67.7654 27.0908 67.7654 31.2665V43.1193C67.7654 47.2949 71.1623 50.6919 75.338 50.6919H87.1908C91.3664 50.6919 94.7634 47.2949 94.7634 43.1193V31.2665C94.7634 27.0908 91.3664 23.6938 87.1908 23.6938H75.338Z" fill="#2EBA0B"/>
<path d="M114.36 56.8174C110.185 56.8174 106.788 60.2143 106.788 64.39V76.2428C106.788 80.4185 110.185 83.8154 114.36 83.8154H126.213C130.389 83.8154 133.786 80.4185 133.786 76.2428V64.39C133.786 60.2143 130.389 56.8174 126.213 56.8174H114.36Z" fill="#2EBA0B"/>
<path d="M97.3954 176.121L94.9875 176.1L93.9216 166.596L97.4754 166.626L97.3954 176.121Z" fill="#A0616A"/>
<path d="M89.6825 179.95C89.6773 180.543 90.1551 181.03 90.7499 181.036L95.5374 181.076L96.3755 179.377L96.6833 181.084L98.4897 181.101L98.0336 175.011L97.4051 174.969L94.8416 174.792L94.0146 174.737L94.0001 176.46L90.1543 179.068C89.8617 179.267 89.6855 179.596 89.6825 179.95Z" fill="#2F2E41"/>
<path d="M109.647 176.121L107.239 176.1L106.173 166.596L109.727 166.626L109.647 176.121Z" fill="#A0616A"/>
<path d="M101.934 179.95C101.929 180.543 102.406 181.03 103.001 181.036L107.789 181.076L108.627 179.377L108.935 181.084L110.741 181.101L110.285 175.011L109.656 174.969L107.093 174.792L106.266 174.737L106.251 176.46L102.405 179.068C102.113 179.267 101.937 179.596 101.934 179.95Z" fill="#2F2E41"/>
<path d="M87.9464 99.2793L97.7069 99.5875L106.954 101.642C106.954 101.642 106.029 102.773 109.111 105.855C109.111 105.855 113.221 113.047 110.344 120.033L109.111 147.979C109.111 147.979 112.706 167.679 109.959 173.948L106.329 174.175L100.187 148.206L97.1932 120.239L95.7548 147.773C95.7548 147.773 101.258 166.673 97.7828 174.175L93.8513 173.948L87.1245 147.773C87.1245 147.773 84.2477 117.567 84.6587 111.814C85.0697 106.06 87.9464 99.2793 87.9464 99.2793Z" fill="#2F2E41"/>
<path d="M120.724 55.1208C119.39 55.4663 118.588 56.828 118.934 58.1623C119.092 58.7737 119.465 59.2711 119.95 59.5997L119.95 59.6031L119.76 64.1878L123.269 65.8114L123.549 58.7563L123.525 58.7571C123.829 58.2151 123.934 57.5603 123.766 56.9112C123.42 55.5769 122.059 54.7753 120.724 55.1208Z" fill="#A0616A"/>
<path d="M101.115 71.4836C100.378 70.753 99.9507 69.7625 99.9347 68.6854C99.9132 67.2405 100.637 65.9291 101.872 65.1774C103.293 64.3117 105.07 64.3993 106.4 65.4003L117.417 73.6954L119.38 61.7456L123.595 63.1023L122.589 78.6627C122.519 79.7512 121.904 80.71 120.944 81.2276C119.984 81.7452 118.845 81.7323 117.896 81.193L101.975 72.1346C101.655 71.9526 101.367 71.7332 101.115 71.4836Z" fill="#3F3D56"/>
<path d="M84.3161 48.4366C85.0204 49.6213 84.6309 51.1527 83.4461 51.857C82.9032 52.1797 82.2881 52.2703 81.7126 52.1625L81.7103 52.165L78.6169 55.5541L74.9822 54.2369L79.7505 49.0296L79.7673 49.0473C79.9329 48.4483 80.3192 47.9093 80.8956 47.5666C82.0804 46.8623 83.6118 47.2518 84.3161 48.4366Z" fill="#A0616A"/>
<path d="M85.6522 73.7193L67.968 68.9424C66.9151 68.658 66.0971 67.8652 65.7797 66.8217C65.4623 65.7782 65.7006 64.6642 66.4169 63.8416L76.6581 52.0835L80.6064 54.0874L73.5871 63.9556L87.2512 65.8216C88.9001 66.0468 90.224 67.236 90.6239 68.8515C90.9712 70.2543 90.5621 71.6954 89.5295 72.7064C88.7598 73.46 87.7588 73.8623 86.721 73.8622C86.3666 73.8622 86.0075 73.8152 85.6522 73.7193Z" fill="#3F3D56"/>
<path d="M110.864 103.39L86.135 104.525C85.4558 103.493 85.6398 101.943 86.5909 100.001C90.1822 92.668 87.4547 78.7963 85.62 71.5732C85.1052 69.5465 86.4871 67.5318 88.5677 67.3237L90.8994 67.0906L93.0547 60.5112H100.603L103.735 64.0889L109.049 67.3175C108.082 77.2817 103.96 91.3521 109.832 98.4083C111.116 99.9515 111.481 101.62 110.864 103.39Z" fill="#3F3D56"/>
<path d="M95.8688 60.6634C99.9294 60.6634 103.221 57.3716 103.221 53.311C103.221 49.2503 99.9294 45.9585 95.8688 45.9585C91.8081 45.9585 88.5163 49.2503 88.5163 53.311C88.5163 57.3716 91.8081 60.6634 95.8688 60.6634Z" fill="#A0616A"/>
<path d="M104.189 48.6044C105.212 44.8748 94.0625 41.6766 91.8959 44.68C91.5947 44.253 90.4813 43.9937 89.9704 44.1247C89.4596 44.2557 89.03 44.5831 88.6108 44.9001C88.0345 45.3428 87.4372 45.8013 87.0835 46.4379C86.7272 47.0718 86.6722 47.9364 87.1516 48.4865C87.5315 48.924 88.199 51.2488 88.7701 51.364C89.1683 51.4452 89.5036 51.5107 89.7918 51.5579C90.0485 51.1833 90.7032 50.7127 90.656 50.2595C91.0437 50.5162 90.9021 50.9679 90.8239 51.4295C90.5636 52.9667 84.6993 64.8662 88.0581 61.3597C88.3908 61.5562 88.8021 61.7396 89.2762 61.9072C90.0805 60.6943 90.7406 59.2639 91.1755 57.7681L91.1786 57.7957C91.3283 59.0957 92.2783 60.1623 93.5352 60.5264C98.577 61.9871 102.655 59.8438 104.058 55.9787C103.545 54.9361 103.321 55.0493 103.367 55.0183C104.008 54.5862 104.889 54.8688 105.165 55.5912C105.246 55.8041 105.32 55.986 105.384 56.1228C106.115 53.5083 106.984 53.8857 104.189 48.6044Z" fill="#2F2E41"/>
<path d="M100.711 45.8985L100.196 43.2655C100.152 43.0442 100.111 42.8041 100.211 42.6018C100.339 42.342 100.669 42.2343 100.956 42.2757C101.242 42.3171 101.457 42.5791 101.742 42.6295C102.734 42.8049 104.046 41.825 104.401 44.304C104.549 45.3376 106.199 45.4468 106.749 46.3338C107.3 47.2209 107.368 48.5013 106.616 49.226C106.016 49.8047 105.052 49.8716 104.272 49.5759C103.492 49.2802 102.866 48.683 102.32 48.0533C101.773 47.4235 101.278 46.742 100.648 46.1962" fill="#2F2E41"/>
<path d="M104.581 49.9031C102.57 49.622 101.198 48.8903 100.506 47.7285C99.599 46.2076 100.206 44.533 100.232 44.4624L100.658 44.6205C100.652 44.6359 100.101 46.1688 100.898 47.5001C101.517 48.5356 102.778 49.193 104.644 49.4538L104.581 49.9031Z" fill="#2EBA0B"/>
<path d="M114.023 21.4542C108.108 21.4542 103.296 16.6417 103.296 10.7271C103.296 4.81252 108.108 0 114.023 0C119.937 0 124.75 4.81252 124.75 10.7271C124.75 16.6417 119.937 21.4542 114.023 21.4542ZM114.023 4.29084C110.473 4.29084 107.586 7.17793 107.586 10.7271C107.586 14.2762 110.473 17.1633 114.023 17.1633C117.572 17.1633 120.459 14.2762 120.459 10.7271C120.459 7.17793 117.572 4.29084 114.023 4.29084Z" fill="#2EBA0B"/>
<path d="M130.527 28.7441C130.001 28.7441 129.474 28.5524 129.06 28.1638L118.992 18.7283C118.127 17.9186 118.083 16.5609 118.894 15.6967C119.703 14.8293 121.06 14.7863 121.925 15.5982L131.994 25.0336C132.859 25.8434 132.903 27.2011 132.092 28.0653C131.67 28.5168 131.099 28.7441 130.527 28.7441Z" fill="#2EBA0B"/>
<path d="M176.03 175.88C176.76 175.926 177.163 175.019 176.611 174.491L176.556 174.273C176.563 174.255 176.571 174.238 176.578 174.22C177.316 172.462 179.816 172.474 180.547 174.235C181.196 175.799 182.023 177.365 182.226 179.018C182.317 179.748 182.276 180.491 182.114 181.207C183.636 177.885 184.436 174.256 184.436 170.608C184.436 169.691 184.386 168.774 184.283 167.86C184.199 167.111 184.083 166.368 183.932 165.631C183.118 161.65 181.355 157.857 178.812 154.69C177.59 154.021 176.571 152.977 175.955 151.725C175.734 151.273 175.56 150.788 175.478 150.293C175.617 150.311 176.003 148.192 175.898 148.062C176.092 147.768 176.439 147.622 176.65 147.335C177.703 145.907 179.154 146.156 179.911 148.097C181.529 148.913 181.545 150.267 180.552 151.57C179.921 152.398 179.834 153.52 179.28 154.407C179.337 154.48 179.396 154.55 179.453 154.623C180.499 155.964 181.403 157.406 182.165 158.92C181.95 157.237 182.268 155.21 182.81 153.903C183.427 152.414 184.584 151.16 185.603 149.872C186.827 148.326 189.336 149.001 189.552 150.961C189.554 150.98 189.556 150.999 189.558 151.018C189.407 151.103 189.258 151.194 189.114 151.29C188.288 151.836 188.573 153.117 189.552 153.268L189.574 153.271C189.519 153.816 189.426 154.357 189.289 154.888C190.596 159.943 187.774 161.784 183.745 161.866C183.656 161.912 183.569 161.957 183.48 162.001C183.889 163.15 184.215 164.329 184.457 165.524C184.673 166.58 184.824 167.647 184.908 168.719C185.013 170.072 185.004 171.431 184.89 172.781L184.897 172.733C185.186 171.246 185.994 169.857 187.166 168.895C188.912 167.46 191.379 166.932 193.263 165.779C194.17 165.224 195.332 165.941 195.174 166.993L195.166 167.043C194.885 167.157 194.612 167.289 194.347 167.438C194.196 167.523 194.048 167.614 193.903 167.709C193.077 168.256 193.362 169.536 194.341 169.687L194.363 169.691C194.379 169.693 194.393 169.695 194.409 169.698C193.928 170.84 193.257 171.901 192.418 172.815C191.601 177.228 188.09 177.646 184.336 176.361H184.333C183.923 178.149 183.323 179.896 182.552 181.561H176.19C176.167 181.49 176.146 181.417 176.126 181.346C176.714 181.383 177.307 181.349 177.886 181.242C177.414 180.662 176.942 180.079 176.47 179.499C176.459 179.488 176.45 179.476 176.441 179.465C176.201 179.169 175.959 178.874 175.72 178.578L175.72 178.578C175.705 177.667 175.814 176.76 176.03 175.88Z" fill="#F2F2F2"/>
<path d="M0 181.58C0 181.813 0.187145 182 0.420191 182H194.719C194.952 182 195.139 181.813 195.139 181.58C195.139 181.347 194.952 181.16 194.719 181.16H0.420191C0.187145 181.16 0 181.347 0 181.58Z" fill="#CCCCCC"/>
</g>
<defs>
<clipPath id="clip0_778_10511">
<rect width="195.188" height="182" fill="white"/>
</clipPath>
</defs>
</svg>
