<svg width="24" height="24" viewBox="0 0 24 24" fill="none" xmlns="http://www.w3.org/2000/svg">
<g opacity="0.2" clip-path="url(#clip0_852_7890)">
<path d="M18 3V5H17V11L19 14V16H13V23H11V16H5V14L7 11V5H6V3H18ZM9 5V11.606L7.404 14H16.596L15 11.606V5H9Z" fill="#2E2E2E"/>
</g>
<defs>
<clipPath id="clip0_852_7890">
<rect width="24" height="24" fill="white"/>
</clipPath>
</defs>
</svg>
