<svg width="25" height="25" viewBox="0 0 25 25" fill="none" xmlns="http://www.w3.org/2000/svg">
<g clip-path="url(#clip0_831_3623)">
<path d="M18.05 16.6427L22.3358 20.9281L20.9199 22.3442L16.6351 18.0578C15.0408 19.336 13.0577 20.0313 11.0144 20.0284C6.04313 20.0284 2.00848 15.9932 2.00848 11.0213C2.00848 6.04934 6.04313 2.01416 11.0144 2.01416C15.9856 2.01416 20.0203 6.04934 20.0203 11.0213C20.0232 13.0649 19.3281 15.0482 18.05 16.6427ZM12.1932 7.19524C11.339 6.93224 10.4214 6.96272 9.5865 7.28183C8.75165 7.60095 8.0476 8.19033 7.58654 8.95607C7.12548 9.72182 6.93394 10.6199 7.04243 11.5071C7.15092 12.3944 7.5532 13.2198 8.18517 13.8518C8.81715 14.4839 9.64245 14.8862 10.5296 14.9947C11.4167 15.1032 12.3147 14.9117 13.0803 14.4506C13.8459 13.9894 14.4352 13.2853 14.7543 12.4503C15.0734 11.6154 15.1039 10.6976 14.8409 9.84333C14.7074 10.1383 14.5044 10.3964 14.2493 10.5957C13.9942 10.7949 13.6946 10.9293 13.3761 10.9873C13.0577 11.0453 12.7299 11.0252 12.4209 10.9286C12.112 10.8321 11.831 10.6621 11.6022 10.4332C11.3734 10.2042 11.2035 9.92315 11.1071 9.6141C11.0107 9.30506 10.9907 8.97724 11.0488 8.65877C11.1069 8.3403 11.2414 8.04068 11.4407 7.7856C11.64 7.53052 11.8982 7.3276 12.1932 7.19424V7.19524Z" fill="#9FB3CB"/>
</g>
<defs>
<clipPath id="clip0_831_3623">
<rect width="24.0157" height="24.0189" fill="white" transform="translate(0.00720215 0.0125732)"/>
</clipPath>
</defs>
</svg>
