<svg width="16" height="16" viewBox="0 0 16 16" fill="none" xmlns="http://www.w3.org/2000/svg">
<g clip-path="url(#clip0_852_4256)">
<path d="M8.66683 4.00002V14H7.3335V4.00002H3.3335V2.66669H12.6668V4.00002H8.66683Z" fill="#A9C4D8"/>
</g>
<defs>
<clipPath id="clip0_852_4256">
<rect width="16" height="16" fill="white"/>
</clipPath>
</defs>
</svg>
