<svg width="16" height="16" viewBox="0 0 16 16" fill="none" xmlns="http://www.w3.org/2000/svg">
<path d="M2.66666 14.6666C2.66666 13.2521 3.22856 11.8956 4.22875 10.8954C5.22895 9.8952 6.5855 9.33329 7.99999 9.33329C9.41448 9.33329 10.771 9.8952 11.7712 10.8954C12.7714 11.8956 13.3333 13.2521 13.3333 14.6666H2.66666ZM7.99999 8.66663C5.78999 8.66663 3.99999 6.87663 3.99999 4.66663C3.99999 2.45663 5.78999 0.666626 7.99999 0.666626C10.21 0.666626 12 2.45663 12 4.66663C12 6.87663 10.21 8.66663 7.99999 8.66663Z" fill="#A9C4D8"/>
</svg>
